{
	"parent": "futurepack:block/entityeater",
	"textures": {
		"texture0": "futurepack:blocks/machines/turrets/entityeater0",
		"texture1": "futurepack:blocks/machines/turrets/entityeater1",
		"texture2": "futurepack:blocks/machines/turrets/entityeater2",
		"texture3": "futurepack:blocks/machines/turrets/entitykiller3",
		"texture4": "futurepack:blocks/machines/turrets/entityeater4",
		"texture5": "futurepack:blocks/machines/turrets/entitykiller5",
		"texture6": "futurepack:blocks/machines/turrets/entitykiller6",
		"texture7": "futurepack:blocks/machines/turrets/entitykiller7",
		"texture8": "futurepack:blocks/machines/turrets/entitykiller8",
		"texture9": "futurepack:blocks/machines/turrets/entitykiller9",
		"texture10": "futurepack:blocks/machines/turrets/entitykiller10",
		"particle": "futurepack:blocks/machines/turrets/entityeater0"
	},
	"display": {
		"gui": {
			"translation": [ 0, -1.5, 0 ],
			"rotation": [ 30, -135, 0 ],
			"scale": [ 0.55, 0.55, 0.55 ]
		}
	}
}