{
  "variants": {
    "age=0": {
      "model": "futurepack:block/bubbleshroom_0"
    },
    "age=1": {
      "model": "futurepack:block/bubbleshroom_1"
    },
    "age=2": {
      "model": "futurepack:block/bubbleshroom_2"
    },
    "age=3": {
      "model": "futurepack:block/bubbleshroom_3"
    }
  }
}