{
  "variants": {
    "type=bottom": {
      "model": "futurepack:block/color_iron_slab_gray_slab"
    },
    "type=top": {
      "model": "futurepack:block/color_iron_slab_gray_slab_top"
    },
    "type=double": {
      "model": "futurepack:block/color_iron_slab_gray"
    }
  }
}