{
  "variants": {
    "axis=y": {
      "model": "futurepack:block/log_mushroom_model"
    },
    "axis=z": {
      "model": "futurepack:block/log_mushroom_model",
      "x": 90
    },
    "axis=x": {
      "model": "futurepack:block/log_mushroom_model",
      "x": 90,
      "y": 90
    }
  }
}