{
	"variants":
	{
		"loading=cooldown,shape=north_south": {"model": "futurepack:block/monorail_station_flat_cooldown"},
        "loading=cooldown,shape=east_west": {"model": "futurepack:block/monorail_station_flat_cooldown", "y":90},
        "loading=cooldown,shape=ascending_east": {"model": "futurepack:block/monorail_station_raised_ne_cooldown", "y":90},
        "loading=cooldown,shape=ascending_west": {"model": "futurepack:block/monorail_station_raised_sw_cooldown", "y":90},
        "loading=cooldown,shape=ascending_north": {"model": "futurepack:block/monorail_station_raised_ne_cooldown"},
        "loading=cooldown,shape=ascending_south": {"model": "futurepack:block/monorail_station_raised_sw_cooldown"},
		
		"loading=transfer,shape=north_south": {"model": "futurepack:block/monorail_station_flat_transfer"},
        "loading=transfer,shape=east_west": {"model": "futurepack:block/monorail_station_flat_transfer", "y":90},
        "loading=transfer,shape=ascending_east": {"model": "futurepack:block/monorail_station_raised_ne_transfer", "y":90},
        "loading=transfer,shape=ascending_west": {"model": "futurepack:block/monorail_station_raised_sw_transfer", "y":90},
        "loading=transfer,shape=ascending_north": {"model": "futurepack:block/monorail_station_raised_ne_transfer"},
        "loading=transfer,shape=ascending_south": {"model": "futurepack:block/monorail_station_raised_sw_transfer"},
		
		"loading=ready,shape=north_south": {"model": "futurepack:block/monorail_station_flat_ready"},
        "loading=ready,shape=east_west": {"model": "futurepack:block/monorail_station_flat_ready", "y":90},
        "loading=ready,shape=ascending_east": {"model": "futurepack:block/monorail_station_raised_ne_ready", "y":90},
        "loading=ready,shape=ascending_west": {"model": "futurepack:block/monorail_station_raised_sw_ready", "y":90},
        "loading=ready,shape=ascending_north": {"model": "futurepack:block/monorail_station_raised_ne_ready"},
        "loading=ready,shape=ascending_south": {"model": "futurepack:block/monorail_station_raised_sw_ready"}
	}
}
