{
    "variants":
	{
        "shape=north_south":	{ "model": "futurepack:block/monorail_flat" },
        "shape=east_west":		{ "model": "futurepack:block/monorail_flat", "y": 90 },
        "shape=ascending_east":		{ "model": "futurepack:block/monorail_raised_ne", "y": 90 },
        "shape=ascending_west": 	{ "model": "futurepack:block/monorail_raised_sw", "y": 90 },
        "shape=ascending_north":	{ "model": "futurepack:block/monorail_raised_ne" },
        "shape=ascending_south":	{ "model": "futurepack:block/monorail_raised_sw" },
        "shape=east_south":		{ "model": "futurepack:block/monorail_curved" },
        "shape=south_west": 	{ "model": "futurepack:block/monorail_curved", "y": 90 },
        "shape=north_west": 	{ "model": "futurepack:block/monorail_curved", "y": 180 },
        "shape=north_east": 	{ "model": "futurepack:block/monorail_curved", "y": 270 },	
		"shape=north_east_south": 	{ "model": "futurepack:block/monorail_t", "y": 270 },
        "shape=north_south_west": 	{ "model": "futurepack:block/monorail_t", "y": 90 },
        "shape=north_east_west": 	{ "model": "futurepack:block/monorail_t", "y": 180 },
        "shape=east_south_west": 	{ "model": "futurepack:block/monorail_t", "y": 0 },
		"shape=north_east_south_west":	{ "model": "futurepack:block/monorail_all" }
    }
}
