{
    "variants": {
        "time=0": { "model": "futurepack:block/rs_timer_0"},
        "time=1": { "model": "futurepack:block/rs_timer_1"},
        "time=2": { "model": "futurepack:block/rs_timer_2"},
        "time=3": { "model": "futurepack:block/rs_timer_3"},
        "time=4": { "model": "futurepack:block/rs_timer_4"},
        "time=5": { "model": "futurepack:block/rs_timer_5"},
        "time=6": { "model": "futurepack:block/rs_timer_6"},
        "time=7": { "model": "futurepack:block/rs_timer_7"},
        "time=8": { "model": "futurepack:block/rs_timer_8"}
    }
}
