{
    "variants": {
		"power=0": { "model": "futurepack:block/receiver_model_0"},
		"power=1": { "model": "futurepack:block/receiver_model_1"},
		"power=2": { "model": "futurepack:block/receiver_model_2"},
		"power=3": { "model": "futurepack:block/receiver_model_3"},
		"power=4": { "model": "futurepack:block/receiver_model_4"},
		"power=5": { "model": "futurepack:block/receiver_model_5"},
		"power=6": { "model": "futurepack:block/receiver_model_6"},
		"power=7": { "model": "futurepack:block/receiver_model_7"},
		"power=8": { "model": "futurepack:block/receiver_model_8"},
		"power=9": { "model": "futurepack:block/receiver_model_9"},
		"power=10": { "model": "futurepack:block/receiver_model_10"},
		"power=11": { "model": "futurepack:block/receiver_model_11"},
		"power=12": { "model": "futurepack:block/receiver_model_12"},
		"power=13": { "model": "futurepack:block/receiver_model_13"},
		"power=14": { "model": "futurepack:block/receiver_model_14"},
		"power=15": { "model": "futurepack:block/receiver_model_15"}
    }
}
