{
    "parent": "block/inner_stairs",
    "textures": {
        "bottom": "futurepack:blocks/gitter_1",
        "top": "futurepack:blocks/gitter_1",
        "side": "futurepack:blocks/gitter_1"
    }
}
