{
    "parent": "block/inner_stairs",
    "textures": {
        "bottom": "futurepack:blocks/gitter_5",
        "top": "futurepack:blocks/gitter_5",
        "side": "futurepack:blocks/gitter_5"
    }
}
