{
  "display": {
    "icon": {
      "item": "futurepack:scrench"
    },
    "title": {
      "translate": "advancements.futurepack.root.title"
    },
    "description": {
      "translate": "advancements.futurepack.root.description"
    },
    "background": "futurepack:textures/blocks/deko/color_iron_white.png",
    "show_toast": false,
    "announce_to_chat": false
  },
  "criteria": {
    "join_world": {
      "trigger": "minecraft:changed_dimension",
      "conditions": {
        "to": "overworld"
      }
    },
    "escanner": {
      "trigger": "minecraft:inventory_changed",
      "conditions": {
        "items": [
          {
            "items": [ "futurepack:escanner" ]
          }
        ]
      }
    }
  },
  "requirements": [
    [
      "join_world",
      "escanner"
    ]
  ]
}