{
    "pools": 
    [
        {
            "name":"default",
            "rolls":             
			{
                "min": 0,
                "max": 1
            },
            "entries": 
            [
                {
                    "type": "minecraft:loot_table",
                    "name": "futurepack:chests/loots/common_ingots",
                    "weight": 20
                },
				{
                    "type": "minecraft:loot_table",
                    "name": "futurepack:chests/loots/common_craft",
                    "weight": 60
                },
				{
                    "type": "minecraft:loot_table",
                    "name": "futurepack:chests/loots/fp_craft",
                    "weight": 20
                }
            ]
        }
    ]
}