{
	"_version": 1.13,
    "pools": 
    [
		{
            "name":"electronic_fragments",
            "rolls": 1,
            "entries": 
            [
		        {
                    "type": "item",
                    "name": "futurepack:fragment_ram",
                    "weight": 20,
                    "functions": 
                    [
                        {
                            "function": "set_count",
                            "count": 
                            {
                                "min": 1,
                                "max": 2
                            }
                        }
                    ]
                },
                {
                    "type": "item",
                    "name": "futurepack:fragment_core",
                    "weight": 20,
                    "functions": 
                    [
                        {
                            "function": "set_count",
                            "count": 
                            {
                                "min": 1,
                                "max": 2
                            }
                        }
                    ]
                },
                {
                    "type":"empty",
                    "weight":60
                }
			]
		}
    ]
}