{
  "type": "futurepack:research_shaped",
  "group": "futurepack",
  "pattern": [
    "NRN",
    "NFN",
    "NCN"
  ],
  "key": {
    "C": {
      "item": "futurepack:coil_neon"
    },
    "R": {
      "tag": "forge:chests/wooden"
    },
    "N": {
      "item": "futurepack:battery_n"
    },
    "F": {
      "item": "futurepack:color_iron_light_gray"
    }
  },
  "result": {
    "item": "futurepack:battery_box_gray"
  }
}