{
  "type": "futurepack:research_shaped",
  "group": "futurepack",
  "pattern": [
    "E",
    "N"
  ],
  "key": {
    "N": {
      "item": "futurepack:teleporter"
    },
    "E": {
      "tag": "forge:ender_pearls"
    }
  },
  "result": {
    "item": "futurepack:teleporter_up"
  }
}