{
  "type": "futurepack:research_shaped",
  "group": "futurepack",
  "pattern": [
    "MM ",
    "MM ",
    "MM "
  ],
  "key": {
    "M": {
      "item": "futurepack:composite_metal"
    }
  },
  "result": {
    "item": "futurepack:composite_door",
    "count": 3
  }
}