{
  "type": "futurepack:research_shaped",
  "group": "futurepack",
  "pattern": [
    "RAL",
    "KPE",
    "RAL"
  ],
  "key": {
    "A": {
      "tag": "forge:ingots/aluminum"
    },
    "R": {
      "item": "futurepack:drone_engine"
    },
    "L": {
      "item": "futurepack:composite_axe"
    },
    "K": {
      "item": "futurepack:chip_ai"
    },
    "P": {
      "item": "futurepack:core_p2"
    },
    "E": {
      "tag": "forge:tree_saplings"
    }
  },
  "result": {
    "item": "futurepack:forstmasterbox"
  }
}