{
  "type": "futurepack:owner_shaped",
  "group": "futurepack",
  "pattern": [
    "PGP",
    "GEG",
    "PGP"
  ],
  "key": {
    "G": {
      "tag": "forge:ingots/gold"
    },
    "P": {
      "tag": "forge:ender_pearls"
    },
    "E": {
      "item": "futurepack:entity_egger"
    }
  },
  "result": {
    "item": "futurepack:pearl_egger"
  }
}