{
  "type": "minecraft:crafting_shaped",
  "group": "futurepack",
  "pattern": [
    "EEE",
    "EEE",
    "EEE"
  ],
  "key": {
    "E": {
      "item": "futurepack:crystal_alutin"
    }
  },
  "result": {
    "item": "futurepack:block_crystal_alutin"
  }
}