{
  "type": "futurepack:research_shaped",
  "group": "futurepack",
  "pattern": [
    "RRR",
    "ANG",
    "ZLI"
  ],
  "key": {
    "R": {
      "tag": "forge:dusts/redstone"
    },
    "A": {
      "tag": "forge:ingots/aluminum"
    },
    "N": {
      "item": "futurepack:chip_navigation"
    },
    "L": {
      "item": "futurepack:chip_logic"
    },
    "G": {
      "tag": "forge:glass_panes"
    },
    "Z": {
      "tag": "forge:ingots/zinc"
    },
    "I": {
      "tag": "forge:ingots/neon"
    }
  },
  "result": {
    "item": "futurepack:escanner"
  }
}