{
  "type": "futurepack:research_shapeless",
  "group": "futurepack",
  "ingredients": [
    {
      "item": "minecraft:arrow"
    },
    {
      "item": "minecraft:arrow"
    },
    {
      "item": "minecraft:arrow"
    },
    {
      "item": "minecraft:arrow"
    }
  ],
  "result": {
    "item": "minecraft:feather"
  }
}