{
  "type": "futurepack:research_shaped",
  "group": "futurepack",
  "pattern": [
    "IGI",
    "G G",
    "IGI"
  ],
  "key": {
    "I": {
      "tag": "forge:ingots/iron"
    },
    "G": {
      "tag": "forge:glass_panes"
    }
  },
  "result": {
    "count": 1,
    "item": "futurepack:fluid_tank"
  }
}