{
  "type": "futurepack:research_shaped",
  "group": "futurepack",
  "pattern": [
    "GAS",
    "CKP",
    "LAS"
  ],
  "key": {
    "A": {
      "tag": "forge:ingots/aluminum"
    },
    "S": {
      "item": "futurepack:scrench"
    },
    "C": {
      "item": "futurepack:coil_neon"
    },
    "G": {
      "tag": "forge:glass_panes"
    },
    "L": {
      "item": "futurepack:chip_logic"
    },
    "K": {
      "item": "futurepack:wire_normal"
    },
    "P": {
      "item": "futurepack:parts_copper"
    }
  },
  "result": {
    "item": "futurepack:logistic_editor"
  }
}