{
  "type": "futurepack:research_shaped",
  "group": "futurepack",
  "pattern": [
    "GGG"
  ],
  "key": {
    "G": {
      "item": "futurepack:metal_block_gitter"
    }
  },
  "result": {
    "item": "futurepack:metal_gitter_slab",
    "count": 6
  }
}