{
  "type": "futurepack:maschin_shaped",
  "group": "futurepack",
  "pattern": [
    "AKA",
    "CFC",
    "AMA"
  ],
  "key": {
    "K": {
      "item": "futurepack:extern_cooler"
    },
    "C": {
      "item": "futurepack:wire_normal"
    },
    "A": {
      "tag": "forge:ingots/aluminum"
    },
    "F": {
      "item": "futurepack:color_iron_black"
    },
    "M": {
      "item": "futurepack:double_maschineboard"
    }
  },
  "result": {
    "item": "futurepack:modul_1_calculation_black"
  }
}