{
  "type": "futurepack:research_shaped",
  "group": "futurepack",
  "pattern": [
    "ACA",
    "TMR",
    "ACA"
  ],
  "key": {
    "T": {
      "item": "futurepack:chip_transport"
    },
    "R": {
      "item": "futurepack:chip_redstone"
    },
    "C": {
      "item": "futurepack:coil_copper"
    },
    "A": [
      {
        "tag": "forge:ingots/aluminum"
      }
    ],
    "M": [
      {
        "tag": "forge:ingots/magnetite"
      }
    ]
  },
  "result": {
    "item": "futurepack:modul_magnet"
  }
}