{
  "type": "minecraft:crafting_shaped",
  "group": "futurepack",
  "pattern": [
    "BB",
    "BB"
  ],
  "key": {
    "B": {
      "tag": "forge:ingots/glowtite"
    }
  },
  "result": {
    "item": "futurepack:glowtite_brick"
  }
}