{
  "type": "futurepack:research_shaped",
  "group": "futurepack",
  "pattern": [
    " N ",
    "PFP",
    " W "
  ],
  "key": {
    "N": {
      "item": "futurepack:chip_network"
    },
    "P": {
      "item": "futurepack:parts_diamond"
    },
    "F": {
		"item":"futurepack:researcher_black"
	},
    "W": {
    	"item": "futurepack:wire_network"
    }
  },
  "result": {
    "item": "futurepack:shared_researcher_black"
  }
}