{
  "type": "minecraft:crafting_shaped",
  "group": "futurepack",
  "pattern": [
    "I",
    "I"
  ],
  "key": {
    "I": {
      "item": "minecraft:iron_ingot"
    }
  },
  "result": {
    "item": "futurepack:iron_stick",
    "count": 8
  }
}