{
  "type": "minecraft:crafting_shaped",
  "group": "futurepack",
  "pattern": [
    "SS",
    "SS"
  ],
  "key": {
    "S": {
      "item": "futurepack:sand_m"
    }
  },
  "result": {
    "item": "futurepack:sandstone_m"
  }
}