{
  "type": "futurepack:research_shaped",
  "group": "futurepack",
  "pattern": [
    "WAW",
    "NRN",
    "CAC"
  ],
  "key": {
    "W": {
      "tag": "minecraft:wool"
    },
    "A": {
      "tag": "forge:ingots/aluminum"
    },
    "N": {
      "item": "futurepack:coil_neon"
    },
    "R": {
      "item": "futurepack:chip_tactic"
    },
    "C": [{
      "item": "minecraft:coal_ore"
    },
    {
      "item": "minecraft:diamond_ore"
    },
    {
      "item": "minecraft:redstone_ore"
    },
    {
      "item": "minecraft:lapis_ore"
    }]
  },
  "result": {
    "item": "futurepack:upgrade_silktouch"
  }
}