{
    "variants": {
        "facing=down,metadata=0": {"model": "futurepack:spacedoor"},
		"facing=up,metadata=0": {"model": "futurepack:spacedoor"},
        "facing=north,metadata=0": {"model": "futurepack:spacedoor"},
		"facing=east,metadata=0": {"model": "futurepack:spacedoor"},
		"facing=south,metadata=0": {"model": "futurepack:spacedoor"},
		"facing=west,metadata=0": {"model": "futurepack:spacedoor"},
		
        "facing=down,metadata=1": {"model": "futurepack:spacedoor"},
		"facing=up,metadata=1": {"model": "futurepack:spacedoor"},
        "facing=north,metadata=1": {"model": "futurepack:spacedoor"},
		"facing=east,metadata=1": {"model": "futurepack:spacedoor"},
		"facing=south,metadata=1": {"model": "futurepack:spacedoor"},
		"facing=west,metadata=1": {"model": "futurepack:spacedoor"},
		
        "facing=down,metadata=2": {"model": "futurepack:spacedoor"},
		"facing=up,metadata=2": {"model": "futurepack:spacedoor"},
        "facing=north,metadata=2": {"model": "futurepack:spacedoor"},
		"facing=east,metadata=2": {"model": "futurepack:spacedoor"},
		"facing=south,metadata=2": {"model": "futurepack:spacedoor"},
		"facing=west,metadata=2": {"model": "futurepack:spacedoor"},
		
		"facing=down,metadata=3": {"model": "futurepack:spacedoor"},
        "facing=up,metadata=3": {"model": "futurepack:spacedoor"},
		"facing=north,metadata=3": {"model": "futurepack:spacedoor"},
        "facing=east,metadata=3": {"model": "futurepack:spacedoor"},
        "facing=south,metadata=3": {"model": "futurepack:spacedoor"},
        "facing=west,metadata=3": {"model": "futurepack:spacedoor"}		
    }
}
