{
    "forge_marker": 1,
    "defaults": {
        "model": "cross"
    },
    "variants": {
        "age=0,type=rotkappe":[{"textures": {"cross": "futurepack:blocks/pilz_0_0"}}],
        "age=0,type=blauling":[{"textures": {"cross": "futurepack:blocks/pilz_1_0"}}],
		"age=0,type=blasenpilz":[{"textures": {"cross": "futurepack:blocks/pilz_2_0"}}],
		"age=0,type=hyticus":[{"textures": {"cross": "futurepack:blocks/pilz_3_0"}}],
		
		"age=1,type=rotkappe":[{"textures": {"cross": "futurepack:blocks/pilz_0_1"}}],
        "age=1,type=blauling":[{"textures": {"cross": "futurepack:blocks/pilz_1_1"}}],
		"age=1,type=blasenpilz":[{"textures": {"cross": "futurepack:blocks/pilz_2_1"}}],
		"age=1,type=hyticus":[{"textures": {"cross": "futurepack:blocks/pilz_3_1"}}],
		
		"age=2,type=rotkappe":[{"textures": {"cross": "futurepack:blocks/pilz_0_2"}}],
        "age=2,type=blauling":[{"textures": {"cross": "futurepack:blocks/pilz_1_2"}}],
		"age=2,type=blasenpilz":[{"textures": {"cross": "futurepack:blocks/pilz_2_2"}}],
		"age=2,type=hyticus":[{"textures": {"cross": "futurepack:blocks/pilz_3_2"}}],
		
		"age=3,type=rotkappe":[{"textures": {"cross": "futurepack:blocks/pilz_0_3"}}],
        "age=3,type=blauling":[{"textures": {"cross": "futurepack:blocks/pilz_1_3"}}],
		"age=3,type=blasenpilz":[{"textures": {"cross": "futurepack:blocks/pilz_2_3"}}],
		"age=3,type=hyticus":[{"textures": {"cross": "futurepack:blocks/pilz_3_3"}}]
    }
}
