{
    "pools": [
        {
            "name":"magma_cream",
            "rolls": 1,
            "entries": [
                {
                    "type": "item",
                    "name": "minecraft:magma_cream",
                    "weight": 1,
                    "functions": [
                        {
                            "function": "minecraft:set_count",
                            "count": {
                                "min": 0,
                                "max": 3
                            }
                        },
                        {
                            "function": "minecraft:looting_enchant",
                            "count": {
                                "min": 1,
                                "max": 6
                            }
                        }
                    ]
                }
            ]
        }
    ]
}