[
  {
    "id": "space.drone.monocart",
    "page": "logistic",
    "x": 2,
    "y": 3,
    "parents": [
      "space.emagnet"
    ],
    "picon": "ENTITY_MONOCART",
    "aspects": [],
    "level": 0,
    "time": 0,
    "need": [],
    "enables": [
      {
        "name": "futurepack:monocartbox"
      }
    ]
  },
  {
    "id": "space.drone.mono.rail",
    "page": "logistic",
    "x": 3,
    "y": 4,
    "parents": [
      "space.drone.monocart"
    ],
    "aspects": [],
    "level": 0,
    "time": 0,
    "need": [],
    "icon": {
      "name": "futurepack:monorail"
    },
    "enables": [
      {
        "name": "futurepack:monorail"
      },
      {
        "name": "futurepack:monorail_lift"
      }
    ]
  },
  {
    "id": "space.drone.mono.oneway",
    "page": "logistic",
    "x": 3,
    "y": 5,
    "parents": [
      "space.drone.mono.rail"
    ],
    "aspects": [
      "logistik"
    ],
    "level": 1,
    "time": 300,
    "neon": 800,
    "need": [
      {
        "size": 2,
        "name": "futurepack:monorail"
      },
      {
        "size": 4,
        "tag": "forge:dusts/redstone"
      }
    ],
    "icon": {
      "name": "futurepack:monorail_oneway"
    },
    "enables": [
      {
        "name": "futurepack:monorail_oneway"
      }
    ],
	"rewards":
	[
	  {
        "size": 2,
        "name": "futurepack:monorail_oneway"
      }
	]
  },
  {
    "id": "space.drone.mono.waypoint",
    "page": "logistic",
    "x": 4,
    "y": 4,
    "parents": [
      "space.drone.monocart"
    ],
    "aspects": [],
    "level": 0,
    "time": 0,
    "need": [],
    "icon": {
      "name": "futurepack:monorail_waypoint"
    },
    "enables": [
      {
        "name": "futurepack:monorail_waypoint"
      }
    ]
  },
  {
    "id": "space.drone.mono.station",
    "page": "logistic",
    "x": 4,
    "y": 5,
    "parents": [
      "space.drone.mono.waypoint"
    ],
    "aspects": [],
    "level": 0,
    "time": 0,
    "need": [],
    "icon": {
      "name": "futurepack:monorail_station"
    },
    "enables": [
      {
        "name": "futurepack:monorail_station"
      }
    ]
  },
  {
    "id": "space.drone.mono.detector",
    "page": "logistic",
    "x": 5,
    "y": 4,
    "parents": [
      "space.drone.monocart"
    ],
    "aspects": [
      "energieverbindung",
      "hydraulic"
    ],
    "level": 1,
    "time": 600,
    "neon": 1600,
    "need": [
      {
        "size": 2,
        "name": "futurepack:monorail"
      },
      {
        "size": 4,
        "tag": "forge:dusts/redstone"
      }
    ],
    "icon": {
      "name": "futurepack:monorail_detector"
    },
    "enables": [
      {
        "name": "futurepack:monorail_detector"
      }
    ],
	"rewards":
	[
	  {
        "size": 2,
        "name": "futurepack:monorail_detector"
      },
	  {
        "size": 2,
        "name": "futurepack:monorail_booster"
      }
	]
  },
  {
    "id": "space.drone.mono.booster",
    "page": "logistic",
    "x": 5,
    "y": 5,
    "parents": [
      "space.drone.mono.detector"
    ],
    "aspects": [],
    "level": 0,
    "time": 0,
    "need": [],
    "icon": {
      "name": "futurepack:monorail_booster"
    },
    "enables": [
      {
        "name": "futurepack:monorail_booster"
      }
    ]
  },
  {
    "id": "space.drone.mono.charger",
    "page": "logistic",
    "x": 6,
    "y": 4,
    "parents": [
      "space.drone.monocart"
    ],
    "aspects": [],
    "level": 0,
    "time": 0,
    "need": [],
    "icon": {
      "name": "futurepack:monorail_charger"
    },
    "enables": [
      {
        "name": "futurepack:monorail_charger"
      }
    ]
  },
  {
    "id": "space.dronestation",
    "page": "logistic",
    "x": 8,
    "y": 3,
    "parents": [
      "drones",
      "space.drone.monocart"
    ],
    "aspects": [],
    "level": 0,
    "time": 0,
    "need": [],
    "icon": {
      "name": "futurepack:drone_station"
    },
    "enables": [
      {
        "name": "futurepack:drone_station"
      },
      {
        "name": "futurepack:drone_engine"
      }
    ]
  },
  {
    "id": "space.miner",
    "page": "logistic",
    "x": 9,
    "y": 4,
    "parents": [
      "bergbau",
      "space.dronestation"
    ],
    "picon": "ENTITY_MINER",
    "aspects": [],
    "level": 0,
    "time": 0,
    "need": [],
    "enables": [
      {
        "name": "futurepack:minerbox"
      }
    ]
  },
  {
    "id": "space.claime",
    "page": "logistic",
    "x": 9,
    "y": 5,
    "parents": [
      "space.miner"
    ],
    "aspects": [],
    "level": 0,
    "time": 0,
    "need": [],
    "icon": {
      "name": "futurepack:claime"
    },
    "enables": [
      {
        "name": "futurepack:claime"
      }
    ]
  },
  {
    "id": "space.forstmaster",
    "page": "logistic",
    "x": 10,
    "y": 4,
    "parents": [
      "space.dronestation"
    ],
    "picon": "ENTITY_FORSTMASTER",
    "aspects": [
      "biologie",
      "logistik",
      "maschinenbau",
      "metallurgie"
    ],
    "level": 2,
    "time": 1200,
    "neon": 96000,
    "support": 120,
    "need": [
      {
        "size": 2,
        "name": "futurepack:drone_engine"
      },
      {
        "size": 1,
        "name": "futurepack:composite_axe"
      },
      {
        "size": 1,
        "name": "futurepack:chip_ai"
      }
    ],
    "enables": [
      {
        "name": "futurepack:forstmasterbox"
      }
    ],
	"rewards":
	[
	  {
        "size": 1,
        "name": "futurepack:forstmasterbox"
      },
	  {
        "size": 8,
        "name": "futurepack:sapling_holder_plains"
      },
	  {
        "size": 2,
        "name": "futurepack:sapling_holder_nether"
      }
	]
  },
  {
    "id": "space.plantmarker",
    "page": "logistic",
    "x": 10,
    "y": 5,
    "parents": [
      "space.forstmaster"
    ],
    "aspects": [],
    "level": 0,
    "time": 0,
    "need": [],
    "icon": {
      "name": "futurepack:sapling_holder_plains"
    },
    "enables": [
      {
        "name": "futurepack:sapling_holder_plains"
      },
      {
        "name": "futurepack:sapling_holder_desert"
      },
      {
        "name": "futurepack:sapling_holder_nether"
      }
    ]
  },
  {
    "id": "space.thruster",
    "page": "space",
    "x": 1,
    "y": -4,
    "parents": [
      "raumfahrt"
    ],
    "aspects": [],
    "level": 0,
    "time": 0,
    "need": [],
    "icon": {
      "name": "futurepack:thruster_white_light_blue"
    },
    "enables": [
      {
        "name": "futurepack:thruster_white_light_blue"
      },
      {
        "name": "futurepack:thruster_white_yellow"
      },
      {
        "name": "futurepack:thruster_white_lime"
      },
      {
        "name": "futurepack:thruster_white_orange"
      },
      {
        "name": "futurepack:thruster_white_purple"
      },
      {
        "name": "futurepack:thruster_light_gray_light_blue"
      },
      {
        "name": "futurepack:thruster_light_gray_yellow"
      },
      {
        "name": "futurepack:thruster_light_gray_lime"
      },
      {
        "name": "futurepack:thruster_light_gray_orange"
      },
      {
        "name": "futurepack:thruster_light_gray_purple"
      },
      {
        "name": "futurepack:thruster_black_light_blue"
      },
      {
        "name": "futurepack:thruster_black_yellow"
      },
      {
        "name": "futurepack:thruster_black_lime"
      },
      {
        "name": "futurepack:thruster_black_orange"
      },
      {
        "name": "futurepack:thruster_black_purple"
      }
    ]
  },
  {
    "id": "space.tank",
    "page": "space",
    "x": 3,
    "y": -4,
    "parents": [
      "space.thruster"
    ],
    "aspects": [
      "logistik",
      "chemie",
      "morphologie"
    ],
    "level": 2,
    "time": 600,
    "neon": 19200,
    "support": 20,
    "need": [
      {
        "size": 4,
        "name": "futurepack:lack_tank_empty"
      },
      {
        "size": 1,
        "name": "minecraft:blaze_rod"
      },
      {
        "size": 16,
        "tag": "forge:dusts/neon"
      }
    ],
    "icon": {
      "name": "futurepack:fuel_cell"
    },
    "enables": [
      {
        "name": "futurepack:fuel_cell"
      }
    ],
	"rewards":
	[
	  {
        "size": 2,
        "name": "futurepack:fuel_cell"
      }
	]
  },
  {
    "id": "space.fuel",
    "page": "space",
    "x": 3,
    "y": -3,
    "parents": [
      "space.tank"
    ],
    "aspects": [],
    "level": 0,
    "time": 0,
    "need": [],
    "icon": {
      "name": "futurepack:fuel_rods"
    },
    "enables": [
      {
        "name": "futurepack:fuel_rods"
      }
    ]
  },
  {
    "id": "space.teleport",
    "page": "space",
    "x": 1,
    "y": -1,
    "parents": [
      "space.thruster"
    ],
    "aspects": [
      "chemie",
      "logistik",
      "thermodynamic",
      "neonenergie"
    ],
    "level": 2,
    "time": 1200,
    "neon": 76800,
    "support": 120,
    "need": [
      {
        "size": 6,
        "name": "minecraft:ender_pearl"
      },
      {
        "size": 1,
        "name": "futurepack:battery_l"
      },
      {
        "size": 1,
        "name": "minecraft:minecart"
      }
    ],
    "icon": {
      "name": "futurepack:teleporter_both"
    },
    "enables": [
      {
        "name": "futurepack:teleporter_both"
      },
      {
        "name": "futurepack:teleporter_up"
      },
      {
        "name": "futurepack:teleporter_down"
      },
      {
        "name": "futurepack:teleporter"
      }
    ],
	"rewards":
	[
	  {
        "size": 1,
        "name": "futurepack:teleporter_both"
      },
	  {
        "size": 1,
        "name": "futurepack:scrench"
      }
	]
  },
  {
    "id": "space.computer",
    "page": "space",
    "x": 5,
    "y": -4,
    "parents": [
      "space.tank",
      "space.teleport"
    ],
    "aspects": [
      "energieverbindung",
      "neonenergie",
      "maschinenbau"
    ],
    "level": 2,
    "time": 2400,
    "neon": 9600,
    "support": 240,
    "need": [
      {
        "size": 1,
        "name": "futurepack:core_p2"
      },
      {
        "size": 1,
        "name": "futurepack:battery_l"
      },
      {
        "size": 1,
        "name": "minecraft:map"
      }
    ],
    "icon": {
      "name": "futurepack:board_computer_white"
    },
    "enables": [
      {
        "name": "futurepack:board_computer_white"
      },
      {
        "name": "futurepack:board_computer_gray"
      },
      {
        "name": "futurepack:board_computer_black"
      }
    ]
  },
  {
    "id": "space.navcord.menelaus",
    "page": "space",
    "x": 5,
    "y": -1,
    "parents": [
      "space.teleport",
      "space.computer"
    ],
    "aspects": [],
    "level": 0,
    "time": 0,
    "need": [],
    "icon": {
      "name": "futurepack:spacecoordinats"
    },
    "enables": [
      "futurepack:telescope"
    ]
  },
  {
    "id": "space.spaceship",
    "page": "space",
    "x": 5,
    "y": 0,
    "parents": [
      "space.computer"
    ],
    "picon": "RAUMFAHRT",
    "aspects": [],
    "level": 0,
    "time": 0,
    "need": [],
    "enables": []
  },
  {
    "id": "space.drive.ftl",
    "page": "space",
    "x": 7,
    "y": -4,
    "parents": [
      "space.computer",
      "astronomie1"
    ],
    "aspects": [],
    "level": 0,
    "time": 0,
    "need": [],
    "icon": {
      "name": "futurepack:ftl_drive"
    },
    "enables": [
      {
        "name": "futurepack:ftl_drive"
      }
    ]
  },
  {
    "id": "space.advanced",
    "page": "space",
    "x": 9,
    "y": -4,
    "parents": [
      "space.drive.ftl"
    ],
    "aspects": [
      "biologie",
      "geologie",
      "thermodynamic",
      "metallurgie",
      "chemie"
    ],
    "level": 3,
    "time": 1200,
    "neon": 384000,
    "support": 640,
    "expLvl": 400,
    "need": [
      {
        "size": 2,
        "name": "minecraft:map"
      },
      {
        "size": 1,
        "name": "futurepack:telescope"
      },
      {
        "size": 1,
        "name": "futurepack:chip_navigation"
      },
      {
        "size": 4,
        "name": "futurepack:coil_quantanium"
      }
    ],
    "icon": {
      "name": "futurepack:advanced_board_computer_white"
    },
    "enables": [
      {
        "name": "futurepack:advanced_board_computer_white"
      },
      {
        "name": "futurepack:advanced_board_computer_gray"
      },
      {
        "name": "futurepack:advanced_board_computer_black"
      }
    ]
  },
  {
    "id": "space.navcord.tyros",
    "page": "space",
    "x": 9,
    "y": -1,
    "parents": [
      "space.advanced",
      "space.navcord.menelaus"
    ],
    "aspects": [],
    "level": 0,
    "time": 0,
    "need": [],
    "icon": {
      "name": "futurepack:spacecoordinats"
    },
    "enables": []
  },
  {
    "id": "space.emagnet",
    "page": "space",
    "x": 1,
    "y": 2,
    "parents": [
      "magnetismus"
    ],
    "aspects": [],
    "level": 0,
    "time": 0,
    "need": [],
    "icon": {
      "name": "futurepack:electro_magnet"
    },
    "enables": [
      {
        "name": "futurepack:electro_magnet"
      }
    ]
  },
  {
    "id": "space.magnetblock",
    "page": "space",
    "x": 2,
    "y": 2,
    "parents": [
      "space.emagnet",
      "production.nind.magnet"
    ],
    "aspects": [],
    "level": 0,
    "time": 0,
    "need": [],
    "icon": {
      "name": "futurepack:magnet"
    },
    "enables": [
      {
        "name": "futurepack:magnet"
      }
    ]
  },
  {
    "id": "space.gravity",
    "page": "space",
    "x": 3,
    "y": 3,
    "parents": [
      "space.magnetblock",
      "upgradeT3"
    ],
    "aspects": [
      "hydraulic",
      "metallurgie"
    ],
    "level": 3,
    "time": 1200,
    "neon": 230400,
    "support": 320,
    "expLvl": 400,
    "need": [
      {
        "size": 6,
        "tag": "forge:ingots/retium"
      },
      {
        "size": 4,
        "tag": "forge:ingots/magnetite"
      },
      {
        "size": 6,
        "tag": "forge:ingots/neon"
      },
      {
        "size": 1,
        "name": "minecraft:stone_pressure_plate"
      }
    ],
    "icon": {
      "name": "futurepack:gravity_pulser"
    },
    "enables": [
      {
        "name": "futurepack:gravity_pulser"
      }
    ],
	"rewards":
	[
	  {
        "size": 1,
        "name": "futurepack:gravity_pulser"
      },
	  {
        "size": 2,
        "name": "minecraft:squid_spawn_egg"
      }
	]
  },
  {
    "id": "space.airlock",
    "page": "space",
    "x": 4,
    "y": 3,
    "parents": [
      "space.magnetblock"
    ],
    "aspects": [
      "hydraulic",
      "maschinenbau",
      "thermodynamic"
    ],
    "level": 2,
    "time": 1200,
    "neon": 14400,
    "support": 40,
    "need": [
      {
        "size": 16,
        "tag": "forge:ingots/aluminum"
      },
      {
        "size": 2,
        "name": "minecraft:piston"
      },
      {
        "size": 4,
        "tag": "forge:ingots/magnetite"
      }
    ],
    "icon": {
      "name": "futurepack:airlock_door"
    },
    "enables": [
      {
        "name": "futurepack:airlock_door"
      }
    ],
	"rewards":
	[
	  {
        "size": 4,
        "name": "futurepack:airlock_door"
      }
	]
  },
  {
    "id": "space.modular_door",
    "page": "space",
    "x": 4,
    "y": 4,
    "parents": [
      "space.airlock",
      "production.nind.polymer"
    ],
    "aspects": [
      "hydraulic",
      "thermodynamic",
      "metallurgie",
      "logistik"
    ],
    "level": 2,
    "time": 2400,
    "neon": 38400,
    "support": 60,
    "need": [
      {
        "size": 4,
        "name": "futurepack:ceramic"
      },
      {
        "size": 1,
        "name": "minecraft:piston"
      },
      {
        "size": 1,
        "name": "futurepack:polymer"
      }
    ],
    "icon": {
      "name": "futurepack:modular_door"
    },
    "enables": [
      {
        "name": "futurepack:modular_door"
      }
    ],
	"rewards":
	[
	  {
        "size": 4,
        "name": "futurepack:modular_door"
      }
	]
  },
  {
    "id": "space.turret.rocket",
    "page": "space",
    "x": 6,
    "y": 2,
    "parents": [
      "waffentechnik1"
    ],
    "aspects": [],
    "level": 0,
    "time": 0,
    "need": [],
    "icon": {
      "name": "futurepack:rocket_launcher"
    },
    "enables": [
      {
        "name": "futurepack:rocket_launcher"
      },
      {
        "name": "futurepack:rocket"
      },
      {
        "name": "futurepack:rocket_plasma"
      },
      {
        "name": "futurepack:rocket_blaze"
      },
      {
        "name": "futurepack:rocket_bioterium"
      }
    ]
  },
  {
    "id": "space.turret.killer",
    "page": "space",
    "x": 7,
    "y": 2,
    "parents": [
      "space.turret.rocket",
      "waffentechnik2"
    ],
    "aspects": [],
    "level": 0,
    "time": 0,
    "need": [],
    "icon": {
      "name": "futurepack:entity_killer"
    },
    "enables": [
      {
        "name": "futurepack:entity_killer"
      }
    ]
  },
  {
    "id": "space.turret.heal",
    "page": "space",
    "x": 8,
    "y": 3,
    "parents": [
      "space.turret.killer",
      "nanomanip"
    ],
    "aspects": [
      "biologie",
      "chemie",
      "neonenergie"
    ],
    "level": 3,
    "time": 2400,
    "neon": 576000,
    "support": 320,
    "expLvl": 400,
    "need": [
      {
        "size": 1,
        "name": "futurepack:laserdiode"
      },
      {
        "size": 1,
        "name": "futurepack:lense_green"
      },
      {
        "size": 1,
        "name": "futurepack:battery_neon"
      },
      {
        "size": 2,
        "name": "minecraft:porkchop"
      }
    ],
    "icon": {
      "name": "futurepack:entity_healer"
    },
    "enables": [
      {
        "name": "futurepack:entity_healer"
      }
    ],
	"rewards":
	[
	  {
        "size": 4,
        "name": "futurepack:entity_healer"
      }
	]
  },
  {
    "id": "space.turret.absorb",
    "page": "space",
    "x": 9,
    "y": 3,
    "parents": [
      "space.turret.killer",
      "lasertechnik2"
    ],
    "aspects": [],
    "level": 0,
    "time": 0,
    "need": [],
    "icon": {
      "name": "futurepack:entity_eater"
    },
    "enables": [
      {
        "name": "futurepack:entity_eater"
      }
    ]
  },
  {
    "id": "space.lifesupport",
    "page": "space",
    "x": 4,
    "y": -7,
    "parents": [
      "space.computer"
    ],
    "aspects": [],
    "level": 0,
    "time": 0,
    "need": [],
    "icon": {
      "name": "futurepack:life_support_system_white"
    },
    "enables": [
      {
        "name": "futurepack:life_support_system_white"
      },
      {
        "name": "futurepack:life_support_system_gray"
      },
      {
        "name": "futurepack:life_support_system_black"
      }
    ]
  }
]