{
  "type": "tconstruct:damagable_melting",
  "conditions": [
        {
            "type": "forge:mod_loaded",
            "modid": "tconstruct"
        }
    ],
    
  "ingredient": {
    "item": "futurepack:composite_boots"
  },
  "result": {
    "fluid": "futurepack:molten_composite_metal",
    "amount": 576
  },
  "temperature": 1450,
  "time": 158
}