{
  "type": "blasting",
  "ingredient": [
  	{
  	  "item": "futurepack:dust_neon", "count": 1
  	}
  ],
  "result": { "item": "futurepack:ingot_neon", "count": 1},
  "experience": 0.7,
  "cookingtime": 100
}