{
	"ultrawarm": 0,
	"natural": 0,
	"coordinate_scale": 1.0,
	"has_skylight": 0,
	"has_ceiling": 1,
	"ambient_light": 0.1,
	"bed_works": 0,
	"respawn_anchor_works": 0,
	"fixed_time": 12000,
	"has_raids": 0,
	"logical_height": 256,
	"infiniburn": "#minecraft:infiniburn_overworld",
	"effects": "minecraft:the_nether",
	"piglin_safe": 1,
	"height": 256,
	"min_y": 0
}