{
	"precipitation": "rain",
	"category": "forest",
	"depth": 0.15,
	"scale": 0.32,
	"temperature": 0.6,
	"downfall": 1.2,
	"temperature_modifier": "none",
	"effects": {
		"fog_color": 11337467,
		"-foliage_color": "will be calculated",
		"-grass_color": "will be calculated",
		"sky_color": 4491485,
		"water_color": 4159204,
		"water_fog_color": 329011,
		"grass_color_modifier": "none",
		"-particle": {
		},
		"-ambient_sound": "",
		"-additions_sound": {
		},
		"-music": {
		},
		"mood_sound": {
			"sound": "minecraft:ambient.cave",
			"tick_delay": 6000,
			"block_search_extent": 8,
			"offset": 2.0
		}
	},
	"surface_builder": "futurepack:tyros_grass_dirt_gravel",
	"carvers": {
		"air": [
			"minecraft:cave",
			"futurepack:tyros_large_canyon",
			"futurepack:tyros_super_canyon"
		],
		"liquid": [
		]
	},
	"features": [
		[
		],
		[
			"minecraft:spring_water",
      		"minecraft:lake_lava_underground","minecraft:lake_lava_surface"
		],
		[

		],
		[

      		"minecraft:monster_room"
		],
		[

		],
		[
		],
		[
			"minecraft:ore_dirt",
			"minecraft:ore_gravel",
			"minecraft:ore_granite_upper", "minecraft:ore_granite_lower",
			"minecraft:ore_diorite_upper", "minecraft:ore_diorite_lower",
			"minecraft:ore_andesite_upper", "minecraft:ore_andesite_lower",
			"minecraft:ore_coal_upper", "minecraft:ore_coal_lower",
			"minecraft:ore_iron_upper","minecraft:ore_iron_middle","minecraft:ore_iron_small",
			"minecraft:ore_gold",
			"minecraft:ore_redstone",
			"minecraft:ore_diamond",
			"minecraft:ore_lapis",
			"minecraft:ore_copper",
			"minecraft:disk_sand",
			"minecraft:disk_clay",
			"minecraft:disk_gravel"
		],
		[

		],
		[
			"minecraft:bamboo_light",
		   	"futurepack:trees_tyros_palirie",
		    "minecraft:flower_warm",
		    "minecraft:patch_grass_jungle",
		    "minecraft:brown_mushroom_normal",
		    "minecraft:red_mushroom_normal",
		    "minecraft:patch_sugar_cane",
		    "minecraft:patch_pumpkin",
		    "minecraft:spring_water",
		    "minecraft:spring_lava",
		    "minecraft:patch_melon",
		    "minecraft:vines",
		    "futurepack:topinambur"
		],
		[
			 "minecraft:freeze_top_layer"

		]
	],
	"starts": [
	],
	"spawners": {
		"monster": [
			{
				"type": "minecraft:spider",
				"weight": 100,
				"minCount": 4,
				"maxCount": 4
			},
			{
				"type": "minecraft:cave_spider",
				"weight": 50,
				"minCount": 3,
				"maxCount": 8
			},
			{
				"type": "minecraft:zombie",
				"weight": 95,
				"minCount": 4,
				"maxCount": 4
			},
			{
				"type": "minecraft:zombie_villager",
				"weight": 5,
				"minCount": 1,
				"maxCount": 1
			},
			{
				"type": "minecraft:skeleton",
				"weight": 100,
				"minCount": 4,
				"maxCount": 4
			},
			{
				"type": "minecraft:creeper",
				"weight": 100,
				"minCount": 4,
				"maxCount": 4
			},
			{
				"type": "minecraft:slime",
				"weight": 100,
				"minCount": 4,
				"maxCount": 4
			},
			{
				"type": "minecraft:enderman",
				"weight": 10,
				"minCount": 1,
				"maxCount": 4
			},
			{
				"type": "minecraft:witch",
				"weight": 5,
				"minCount": 1,
				"maxCount": 1
			}
		],
		"creature": [
			{
				"type": "minecraft:sheep",
				"weight": 12,
				"minCount": 4,
				"maxCount": 4
			},
			{
				"type": "minecraft:pig",
				"weight": 10,
				"minCount": 4,
				"maxCount": 4
			},
			{
				"type": "minecraft:chicken",
				"weight": 10,
				"minCount": 4,
				"maxCount": 4
			},
			{
				"type": "minecraft:cow",
				"weight": 12,
				"minCount": 4,
				"maxCount": 4
			},
			{
				"type": "minecraft:parrot",
				"weight": 20,
				"minCount": 1,
				"maxCount": 2
			},
			{
				"type": "minecraft:ocelot",
				"weight": 2,
				"minCount": 1,
				"maxCount": 1
			}
		],
		"ambient": [
			{
				"type": "minecraft:bat",
				"weight": 10,
				"minCount": 8,
				"maxCount": 8
			}
		],
		"water_creature": [
		],
		"water_ambient": [
		],
		"misc": [
		]
	},
	"player_spawn_friendly": true,
	"-parent": "",
	"spawn_costs": {}
}
