{
	"parent": "block/cube",
	"textures": {
	"particle":"futurepack:blocks/inventory/a_bc_g",
	"down":"futurepack:blocks/inventory/a_bc_g_unten",
	"up":"futurepack:blocks/inventory/a_bc_g_oben",
	"north":"futurepack:blocks/inventory/a_bc_g",
	"east":"futurepack:blocks/inventory/a_bc_g_seite",
	"south":"futurepack:blocks/inventory/a_bc_g_hinten",
	"west":"futurepack:blocks/inventory/a_bc_g_seite"
	}
}
