{
  "parent": "block/outer_stairs",
  "textures": {
    "bottom": "futurepack:blocks/deko/color_iron_black",
    "top": "futurepack:blocks/deko/color_iron_black",
    "side": "futurepack:blocks/deko/color_iron_black"
  }
}