{
  "parent": "block/slab",
  "textures": {
    "bottom": "futurepack:blocks/deko/luftung_cyan",
    "top": "futurepack:blocks/deko/luftung_cyan",
    "side": "futurepack:blocks/deko/luftung_cyan"
  }
}