{
	"parent": "futurepack:block/flash_server_base",
	"textures": {
	"side":"futurepack:blocks/deko/color_iron_light_gray",
	"front":"futurepack:blocks/machines/flash_server_g",
	"back":"futurepack:blocks/deko/luftung_light_gray"
	}
}
