{
	"parent": "block/cube",
	"textures": {
		"particle":"futurepack:blocks/machines/gasturbine_front_s",
		"down":"futurepack:blocks/deko/color_iron_black",
		"up":"futurepack:blocks/deko/color_iron_black",
		"north":"futurepack:blocks/machines/gasturbine_front_s",
		"east":"futurepack:blocks/machines/gasturbine_east_s",
		"south":"futurepack:blocks/machines/gasturbine_back_s",
		"west":"futurepack:blocks/machines/gasturbine_west_s_on"
	}
}