{
    "parent": "block/block",
    "textures": {
        "side": "futurepack:blocks/logistic/insert_node_side",
        "top": "futurepack:blocks/logistic/insert_node_top",
        "down": "futurepack:blocks/logistic/insert_node_down"
    },
    "elements": [
        {
            "from": [4,2,4],
            "to": [12,4,12],  
            "faces": {
                "up": {
                    "texture": "#top"
                },
                "west": {
                    "texture": "#side"
                },
                "east": {
                    "texture": "#side"
                },
                "north": {
                    "texture": "#side"
                },
                "south": {
                    "texture": "#side"
                }
            }
        },
        {
            "from": [2,0,2],
            "to": [14,2,14],
            "faces": {
                "up": {
                    "texture": "#top"
                },
                "down": {
                    "texture": "#down",
                    "cullface": "down"
                },
                "west": {
                    "texture": "#side"
                },
                "east": {
                    "texture": "#side"
                },
                "north": {
                    "texture": "#side"
                },
                "south": {
                    "texture": "#side"
                }
            }
        }
    ]
}