{
	"parent": "block/cube",
	"textures": {
		"particle":"futurepack:blocks/machines/desintegrator_w_front_off",
		"down":"futurepack:blocks/deko/color_iron_white",
		"up":"futurepack:blocks/machines/desintegrator_top_w_off",
		"north":"futurepack:blocks/machines/desintegrator_w_front_off",
		"east":"futurepack:blocks/deko/color_iron_white",
		"south":"futurepack:blocks/deko/luftung_white",
		"west":"futurepack:blocks/deko/color_iron_white"
	}
}