{
	"parent": "block/cube",
	"textures": {
	"particle":"futurepack:blocks/machines/solarzelle_seite_1",
	"down":"futurepack:blocks/deko/color_iron_white",
	"up":"futurepack:blocks/machines/solarzelle_top_1",
	"north":"futurepack:blocks/machines/solarzelle_seite_1",
	"east":"futurepack:blocks/machines/solarzelle_seite_1",
	"south":"futurepack:blocks/machines/solarzelle_seite_1",
	"west":"futurepack:blocks/machines/solarzelle_seite_1"
	}
}
