{
  "parent": "block/orientable",
  "textures": {
    "top": "futurepack:blocks/deko/color_iron_white",
    "front": "futurepack:blocks/deko/thruster_white_off",
    "side": "futurepack:blocks/deko/color_iron_white"
  }
}