{
	"parent": "block/cube",
	"textures": {
		"particle":"futurepack:blocks/machines/zent_forne_w",
		"down":"futurepack:blocks/deko/color_iron_white",
		"up":"futurepack:blocks/machines/zent_oben",
		"north":"futurepack:blocks/machines/zent_forne_w",
		"east":"futurepack:blocks/machines/zent_seiten_w_an",
		"south":"futurepack:blocks/machines/zent_seiten_w_an",
		"west":"futurepack:blocks/machines/zent_seiten_w_an"
	}
}