{
  "type": "minecraft:smithing",
  "base": {
    "item": "futurepack:composite_leggings"
  },
  "addition": {
    "tag": "forge:ingots/wakurium"
  },
  "result": {
    "item": "futurepack:dungeon_leggings"
  }
}