{
  "data": {
    "0-0-0": "0",
    "0-0-1": "0",
    "0-1-0": "0",
    "0-1-1": "0",
    "0-1-2": "0",
    "0-2-0": "1",
    "0-2-1": "1",
    "0-2-2": "0",
    "0-2-3": "0",
    "0-3-0": "0",
    "0-3-1": "0",
    "0-3-2": "1",
    "0-3-3": "0",
    "0-3-4": "0",
    "0-4-0": "0",
    "0-4-1": "0",
    "0-4-2": "0",
    "0-4-3": "1",
    "0-4-4": "0",
    "0-4-5": "0",
    "0-5-2": "0",
    "0-5-3": "0",
    "0-5-4": "1",
    "0-5-5": "0",
    "0-5-6": "0",
    "0-5-7": "0",
    "0-5-8": "0",
    "0-6-3": "0",
    "0-6-4": "0",
    "0-6-5": "1",
    "0-6-6": "0",
    "0-6-7": "0",
    "0-6-8": "0",
    "0-7-4": "0",
    "0-7-5": "0",
    "0-7-6": "1",
    "0-7-7": "1",
    "0-7-8": "1",
    "0-8-5": "0",
    "0-8-6": "0",
    "0-8-7": "0",
    "0-8-8": "0",
    "0-9-6": "0",
    "0-9-7": "0",
    "0-9-8": "0",
    "1-0-0": "2",
    "1-0-1": "3",
    "1-1-0": "4",
    "1-1-1": "4",
    "1-1-2": "5",
    "1-2-0": "4",
    "1-2-1": "4",
    "1-2-2": "4",
    "1-2-3": "5",
    "1-3-0": "4",
    "1-3-1": "4",
    "1-3-2": "4",
    "1-3-3": "4",
    "1-3-4": "5",
    "1-4-0": "2",
    "1-4-1": "3",
    "1-4-2": "4",
    "1-4-3": "4",
    "1-4-4": "4",
    "1-4-5": "5",
    "1-5-2": "6",
    "1-5-3": "4",
    "1-5-4": "4",
    "1-5-5": "4",
    "1-5-6": "5",
    "1-5-7": "2",
    "1-5-8": "3",
    "1-6-3": "6",
    "1-6-4": "4",
    "1-6-5": "4",
    "1-6-6": "4",
    "1-6-7": "4",
    "1-6-8": "4",
    "1-7-4": "6",
    "1-7-5": "4",
    "1-7-6": "4",
    "1-7-7": "4",
    "1-7-8": "4",
    "1-8-5": "6",
    "1-8-6": "4",
    "1-8-7": "4",
    "1-8-8": "4",
    "1-9-6": "2",
    "1-9-7": "7",
    "1-9-8": "3",
    "2-0-0": "8",
    "2-0-1": "8",
    "2-0-2": "0",
    "2-1-0": "4",
    "2-1-1": "4",
    "2-1-2": "5",
    "2-1-3": "0",
    "2-2-0": "4",
    "2-2-1": "4",
    "2-2-2": "4",
    "2-2-3": "5",
    "2-2-4": "0",
    "2-3-0": "4",
    "2-3-1": "4",
    "2-3-2": "4",
    "2-3-3": "4",
    "2-3-4": "5",
    "2-3-5": "0",
    "2-4-0": "8",
    "2-4-1": "9",
    "2-4-2": "4",
    "2-4-3": "4",
    "2-4-4": "4",
    "2-4-5": "5",
    "2-4-6": "0",
    "2-5-2": "9",
    "2-5-3": "4",
    "2-5-4": "4",
    "2-5-5": "4",
    "2-5-6": "5",
    "2-5-7": "8",
    "2-5-8": "8",
    "2-6-3": "9",
    "2-6-4": "4",
    "2-6-5": "4",
    "2-6-6": "4",
    "2-6-7": "4",
    "2-6-8": "4",
    "2-7-4": "9",
    "2-7-5": "4",
    "2-7-6": "4",
    "2-7-7": "4",
    "2-7-8": "4",
    "2-8-5": "9",
    "2-8-6": "4",
    "2-8-7": "4",
    "2-8-8": "4",
    "2-9-6": "8",
    "2-9-7": "8",
    "2-9-8": "8",
    "3-0-0": "2",
    "3-0-1": "3",
    "3-1-0": "4",
    "3-1-1": "4",
    "3-1-2": "5",
    "3-2-0": "4",
    "3-2-1": "4",
    "3-2-2": "4",
    "3-2-3": "5",
    "3-3-0": "4",
    "3-3-1": "4",
    "3-3-2": "4",
    "3-3-3": "4",
    "3-3-4": "5",
    "3-4-0": "2",
    "3-4-1": "3",
    "3-4-2": "4",
    "3-4-3": "4",
    "3-4-4": "4",
    "3-4-5": "5",
    "3-5-2": "6",
    "3-5-3": "4",
    "3-5-4": "4",
    "3-5-5": "4",
    "3-5-6": "5",
    "3-5-7": "2",
    "3-5-8": "3",
    "3-6-3": "6",
    "3-6-4": "4",
    "3-6-5": "4",
    "3-6-6": "4",
    "3-6-7": "4",
    "3-6-8": "4",
    "3-7-4": "6",
    "3-7-5": "4",
    "3-7-6": "4",
    "3-7-7": "4",
    "3-7-8": "4",
    "3-8-5": "6",
    "3-8-6": "4",
    "3-8-7": "4",
    "3-8-8": "4",
    "3-9-6": "2",
    "3-9-7": "7",
    "3-9-8": "3",
    "4-0-0": "0",
    "4-0-1": "0",
    "4-1-0": "0",
    "4-1-1": "0",
    "4-1-2": "0",
    "4-2-0": "1",
    "4-2-1": "1",
    "4-2-2": "0",
    "4-2-3": "0",
    "4-3-0": "0",
    "4-3-1": "0",
    "4-3-2": "1",
    "4-3-3": "0",
    "4-3-4": "0",
    "4-4-0": "0",
    "4-4-1": "0",
    "4-4-2": "0",
    "4-4-3": "1",
    "4-4-4": "0",
    "4-4-5": "0",
    "4-5-2": "0",
    "4-5-3": "0",
    "4-5-4": "1",
    "4-5-5": "0",
    "4-5-6": "0",
    "4-5-7": "0",
    "4-5-8": "0",
    "4-6-3": "0",
    "4-6-4": "0",
    "4-6-5": "1",
    "4-6-6": "0",
    "4-6-7": "0",
    "4-6-8": "0",
    "4-7-4": "0",
    "4-7-5": "0",
    "4-7-6": "1",
    "4-7-7": "1",
    "4-7-8": "1",
    "4-8-5": "0",
    "4-8-6": "0",
    "4-8-7": "0",
    "4-8-8": "0",
    "4-9-6": "0",
    "4-9-7": "0",
    "4-9-8": "0"
  },
  "inventorys": [],
  "doors": [
    {
      "facing": 2,
      "w": 3,
      "h": 3,
      "d": 1,
      "start": "1,1,0"
    },
    {
      "facing": 3,
      "w": 3,
      "h": 3,
      "d": 1,
      "start": "1,6,8"
    }
  ],
  "stateMap": {
    "0": "futurepack:color_iron_gray:",
    "1": "futurepack:color_iron_purple:",
    "2": "futurepack:quantanium:down\u003dfalse;east\u003dfalse;north\u003dfalse;south\u003dtrue;up\u003dfalse;west\u003dfalse",
    "3": "futurepack:quantanium:down\u003dfalse;east\u003dfalse;north\u003dtrue;south\u003dfalse;up\u003dfalse;west\u003dfalse",
    "4": "minecraft:air:",
    "5": "futurepack:color_iron_stair_black:facing\u003dsouth;half\u003dbottom;shape\u003dstraight;waterlogged\u003dfalse",
    "6": "futurepack:quantanium:down\u003dfalse;east\u003dfalse;north\u003dfalse;south\u003dfalse;up\u003dfalse;west\u003dfalse",
    "7": "futurepack:quantanium:down\u003dfalse;east\u003dfalse;north\u003dtrue;south\u003dtrue;up\u003dfalse;west\u003dfalse",
    "8": "futurepack:color_iron_black:",
    "9": "futurepack:color_iron_stair_black:facing\u003dnorth;half\u003dtop;shape\u003dstraight;waterlogged\u003dfalse"
  }
}