{
  "inventorys": [],
  "doors": [
    {
      "facing": 2,
      "w": 3,
      "h": 3,
      "d": 1,
      "start": "1,1,0"
    },
    {
      "facing": 2,
      "w": 3,
      "h": 3,
      "d": 1,
      "start": "1,6,0"
    }
  ],
  "data": {
    "0-0-0": 0,
    "0-0-1": 0,
    "0-1-0": 0,
    "0-1-1": 0,
    "0-2-0": 1,
    "0-2-1": 1,
    "0-3-0": 0,
    "0-3-1": 0,
    "0-4-0": 0,
    "0-4-1": 0,
    "0-5-0": 0,
    "0-5-1": 0,
    "0-6-0": 0,
    "0-6-1": 0,
    "0-7-0": 1,
    "0-7-1": 1,
    "0-8-0": 0,
    "0-8-1": 0,
    "0-9-0": 0,
    "0-9-1": 0,
    "1-0-0": 2,
    "1-0-1": 0,
    "1-1-0": 2,
    "1-1-1": 0,
    "1-2-0": 2,
    "1-2-1": 1,
    "1-3-0": 2,
    "1-3-1": 0,
    "1-4-0": 2,
    "1-4-1": 0,
    "1-5-0": 2,
    "1-5-1": 0,
    "1-6-0": 2,
    "1-6-1": 0,
    "1-7-0": 2,
    "1-7-1": 1,
    "1-8-0": 2,
    "1-8-1": 0,
    "1-9-0": 2,
    "1-9-1": 0,
    "2-0-0": 3,
    "2-0-1": 0,
    "2-1-0": 4,
    "2-1-1": 0,
    "2-2-0": 4,
    "2-2-1": 1,
    "2-3-0": 4,
    "2-3-1": 0,
    "2-4-0": 4,
    "2-4-1": 0,
    "2-5-0": 4,
    "2-5-1": 0,
    "2-6-0": 4,
    "2-6-1": 0,
    "2-7-0": 4,
    "2-7-1": 1,
    "2-8-0": 5,
    "2-8-1": 0,
    "2-9-0": 3,
    "2-9-1": 0,
    "3-0-0": 2,
    "3-0-1": 0,
    "3-1-0": 2,
    "3-1-1": 0,
    "3-2-0": 2,
    "3-2-1": 1,
    "3-3-0": 2,
    "3-3-1": 0,
    "3-4-0": 2,
    "3-4-1": 0,
    "3-5-0": 2,
    "3-5-1": 0,
    "3-6-0": 2,
    "3-6-1": 0,
    "3-7-0": 2,
    "3-7-1": 1,
    "3-8-0": 2,
    "3-8-1": 0,
    "3-9-0": 2,
    "3-9-1": 0,
    "4-0-0": 0,
    "4-0-1": 0,
    "4-1-0": 0,
    "4-1-1": 0,
    "4-2-0": 1,
    "4-2-1": 1,
    "4-3-0": 0,
    "4-3-1": 0,
    "4-4-0": 0,
    "4-4-1": 0,
    "4-5-0": 0,
    "4-5-1": 0,
    "4-6-0": 0,
    "4-6-1": 0,
    "4-7-0": 1,
    "4-7-1": 1,
    "4-8-0": 0,
    "4-8-1": 0,
    "4-9-0": 0,
    "4-9-1": 0
  },
  "stateMap": {
    "0": "futurepack:color_iron_gray:",
    "1": "futurepack:color_iron_purple:",
    "2": "futurepack:quantanium:down\u003dtrue;east\u003dtrue;north\u003dtrue;south\u003dtrue;up\u003dtrue;west\u003dtrue",
    "3": "futurepack:color_iron_black:",
    "4": "futurepack:ironladder:facing\u003dnorth;waterlogged\u003dfalse",
    "5": "minecraft:air:"
  }
}