{
  "data": {
    "0-0-0": "0",
    "0-0-1": "0",
    "0-0-2": "0",
    "0-0-3": "0",
    "0-0-4": "0",
    "0-0-5": "0",
    "0-0-6": "0",
    "0-0-7": "0",
    "0-0-8": "0",
    "0-1-0": "0",
    "0-1-1": "1",
    "0-1-2": "0",
    "0-1-3": "0",
    "0-1-4": "0",
    "0-1-5": "0",
    "0-1-6": "0",
    "0-1-7": "1",
    "0-1-8": "0",
    "0-2-0": "2",
    "0-2-1": "1",
    "0-2-2": "0",
    "0-2-3": "0",
    "0-2-4": "2",
    "0-2-5": "0",
    "0-2-6": "0",
    "0-2-7": "1",
    "0-2-8": "2",
    "0-3-0": "0",
    "0-3-1": "1",
    "0-3-2": "0",
    "0-3-3": "0",
    "0-3-4": "0",
    "0-3-5": "0",
    "0-3-6": "0",
    "0-3-7": "1",
    "0-3-8": "0",
    "0-4-0": "0",
    "0-4-1": "0",
    "0-4-2": "0",
    "0-4-3": "0",
    "0-4-4": "0",
    "0-4-5": "0",
    "0-4-6": "0",
    "0-4-7": "0",
    "0-4-8": "0",
    "1-0-0": "0",
    "1-0-1": "0",
    "1-0-2": "0",
    "1-0-3": "3",
    "1-0-4": "4",
    "1-0-5": "5",
    "1-0-6": "0",
    "1-0-7": "0",
    "1-0-8": "0",
    "1-1-0": "0",
    "1-1-1": "6",
    "1-1-2": "2",
    "1-1-3": "7",
    "1-1-4": "8",
    "1-1-5": "7",
    "1-1-6": "0",
    "1-1-7": "9",
    "1-1-8": "0",
    "1-2-0": "2",
    "1-2-1": "6",
    "1-2-2": "2",
    "1-2-3": "7",
    "1-2-4": "8",
    "1-2-5": "7",
    "1-2-6": "0",
    "1-2-7": "9",
    "1-2-8": "2",
    "1-3-0": "0",
    "1-3-1": "6",
    "1-3-2": "2",
    "1-3-3": "7",
    "1-3-4": "8",
    "1-3-5": "7",
    "1-3-6": "0",
    "1-3-7": "9",
    "1-3-8": "0",
    "1-4-0": "0",
    "1-4-1": "0",
    "1-4-2": "0",
    "1-4-3": "3",
    "1-4-4": "4",
    "1-4-5": "5",
    "1-4-6": "0",
    "1-4-7": "0",
    "1-4-8": "0",
    "2-0-0": "0",
    "2-0-1": "0",
    "2-0-2": "0",
    "2-0-3": "a",
    "2-0-4": "b",
    "2-0-5": "a",
    "2-0-6": "0",
    "2-0-7": "0",
    "2-0-8": "0",
    "2-1-0": "0",
    "2-1-1": "c",
    "2-1-2": "0",
    "2-1-3": "d",
    "2-1-4": "e",
    "2-1-5": "d",
    "2-1-6": "0",
    "2-1-7": "c",
    "2-1-8": "0",
    "2-2-0": "2",
    "2-2-1": "c",
    "2-2-2": "0",
    "2-2-3": "d",
    "2-2-4": "e",
    "2-2-5": "d",
    "2-2-6": "0",
    "2-2-7": "c",
    "2-2-8": "2",
    "2-3-0": "0",
    "2-3-1": "c",
    "2-3-2": "0",
    "2-3-3": "d",
    "2-3-4": "e",
    "2-3-5": "d",
    "2-3-6": "0",
    "2-3-7": "c",
    "2-3-8": "0",
    "2-4-0": "0",
    "2-4-1": "0",
    "2-4-2": "0",
    "2-4-3": "a",
    "2-4-4": "b",
    "2-4-5": "a",
    "2-4-6": "0",
    "2-4-7": "0",
    "2-4-8": "0",
    "3-0-0": "0",
    "3-0-1": "0",
    "3-0-2": "0",
    "3-0-3": "a",
    "3-0-4": "b",
    "3-0-5": "a",
    "3-0-6": "0",
    "3-0-7": "0",
    "3-0-8": "0",
    "3-1-0": "0",
    "3-1-1": "c",
    "3-1-2": "c",
    "3-1-3": "c",
    "3-1-4": "c",
    "3-1-5": "c",
    "3-1-6": "c",
    "3-1-7": "c",
    "3-1-8": "0",
    "3-2-0": "2",
    "3-2-1": "c",
    "3-2-2": "c",
    "3-2-3": "c",
    "3-2-4": "c",
    "3-2-5": "c",
    "3-2-6": "c",
    "3-2-7": "c",
    "3-2-8": "2",
    "3-3-0": "0",
    "3-3-1": "c",
    "3-3-2": "c",
    "3-3-3": "c",
    "3-3-4": "c",
    "3-3-5": "c",
    "3-3-6": "c",
    "3-3-7": "c",
    "3-3-8": "0",
    "3-4-0": "0",
    "3-4-1": "0",
    "3-4-2": "0",
    "3-4-3": "a",
    "3-4-4": "b",
    "3-4-5": "a",
    "3-4-6": "0",
    "3-4-7": "0",
    "3-4-8": "0",
    "4-0-0": "0",
    "4-0-1": "0",
    "4-0-2": "0",
    "4-0-3": "a",
    "4-0-4": "b",
    "4-0-5": "a",
    "4-0-6": "0",
    "4-0-7": "0",
    "4-0-8": "0",
    "4-1-0": "0",
    "4-1-1": "c",
    "4-1-2": "c",
    "4-1-3": "c",
    "4-1-4": "c",
    "4-1-5": "c",
    "4-1-6": "c",
    "4-1-7": "c",
    "4-1-8": "0",
    "4-2-0": "2",
    "4-2-1": "c",
    "4-2-2": "c",
    "4-2-3": "c",
    "4-2-4": "c",
    "4-2-5": "c",
    "4-2-6": "c",
    "4-2-7": "c",
    "4-2-8": "2",
    "4-3-0": "0",
    "4-3-1": "c",
    "4-3-2": "c",
    "4-3-3": "c",
    "4-3-4": "c",
    "4-3-5": "c",
    "4-3-6": "c",
    "4-3-7": "c",
    "4-3-8": "0",
    "4-4-0": "0",
    "4-4-1": "0",
    "4-4-2": "0",
    "4-4-3": "a",
    "4-4-4": "b",
    "4-4-5": "a",
    "4-4-6": "0",
    "4-4-7": "0",
    "4-4-8": "0",
    "5-0-0": "0",
    "5-0-1": "0",
    "5-0-2": "0",
    "5-0-3": "a",
    "5-0-4": "b",
    "5-0-5": "a",
    "5-0-6": "0",
    "5-0-7": "0",
    "5-0-8": "0",
    "5-1-0": "0",
    "5-1-1": "c",
    "5-1-2": "c",
    "5-1-3": "c",
    "5-1-4": "c",
    "5-1-5": "c",
    "5-1-6": "c",
    "5-1-7": "c",
    "5-1-8": "0",
    "5-2-0": "2",
    "5-2-1": "c",
    "5-2-2": "c",
    "5-2-3": "c",
    "5-2-4": "c",
    "5-2-5": "c",
    "5-2-6": "c",
    "5-2-7": "c",
    "5-2-8": "2",
    "5-3-0": "0",
    "5-3-1": "c",
    "5-3-2": "c",
    "5-3-3": "c",
    "5-3-4": "c",
    "5-3-5": "c",
    "5-3-6": "c",
    "5-3-7": "c",
    "5-3-8": "0",
    "5-4-0": "0",
    "5-4-1": "0",
    "5-4-2": "0",
    "5-4-3": "a",
    "5-4-4": "b",
    "5-4-5": "a",
    "5-4-6": "0",
    "5-4-7": "0",
    "5-4-8": "0",
    "6-0-0": "0",
    "6-0-1": "0",
    "6-0-2": "0",
    "6-0-3": "a",
    "6-0-4": "b",
    "6-0-5": "a",
    "6-0-6": "0",
    "6-0-7": "0",
    "6-0-8": "0",
    "6-1-0": "0",
    "6-1-1": "c",
    "6-1-2": "c",
    "6-1-3": "c",
    "6-1-4": "c",
    "6-1-5": "c",
    "6-1-6": "c",
    "6-1-7": "c",
    "6-1-8": "0",
    "6-2-0": "2",
    "6-2-1": "c",
    "6-2-2": "c",
    "6-2-3": "c",
    "6-2-4": "c",
    "6-2-5": "c",
    "6-2-6": "c",
    "6-2-7": "c",
    "6-2-8": "2",
    "6-3-0": "0",
    "6-3-1": "c",
    "6-3-2": "c",
    "6-3-3": "c",
    "6-3-4": "c",
    "6-3-5": "c",
    "6-3-6": "c",
    "6-3-7": "c",
    "6-3-8": "0",
    "6-4-0": "0",
    "6-4-1": "0",
    "6-4-2": "0",
    "6-4-3": "a",
    "6-4-4": "b",
    "6-4-5": "a",
    "6-4-6": "0",
    "6-4-7": "0",
    "6-4-8": "0",
    "7-0-0": "0",
    "7-0-1": "0",
    "7-0-2": "0",
    "7-0-3": "f",
    "7-0-4": "b",
    "7-0-5": "f",
    "7-0-6": "0",
    "7-0-7": "0",
    "7-0-8": "0",
    "7-1-0": "0",
    "7-1-1": "0",
    "7-1-2": "0",
    "7-1-3": "c",
    "7-1-4": "c",
    "7-1-5": "c",
    "7-1-6": "0",
    "7-1-7": "0",
    "7-1-8": "0",
    "7-2-0": "2",
    "7-2-1": "2",
    "7-2-2": "2",
    "7-2-3": "c",
    "7-2-4": "c",
    "7-2-5": "c",
    "7-2-6": "2",
    "7-2-7": "2",
    "7-2-8": "2",
    "7-3-0": "0",
    "7-3-1": "0",
    "7-3-2": "0",
    "7-3-3": "c",
    "7-3-4": "c",
    "7-3-5": "c",
    "7-3-6": "0",
    "7-3-7": "0",
    "7-3-8": "0",
    "7-4-0": "0",
    "7-4-1": "0",
    "7-4-2": "0",
    "7-4-3": "f",
    "7-4-4": "b",
    "7-4-5": "f",
    "7-4-6": "0",
    "7-4-7": "0",
    "7-4-8": "0"
  },
  "inventorys": [],
  "doors": [
    {
      "facing": 5,
      "w": 1,
      "h": 3,
      "d": 3,
      "start": "7,1,3"
    }
  ],
  "stateMap": {
    "0": "futurepack:color_iron_gray:",
    "1": "futurepack:color_luftung_gray:",
    "2": "futurepack:color_iron_purple:",
    "3": "futurepack:quantanium:down\u003dfalse;east\u003dtrue;north\u003dfalse;south\u003dtrue;up\u003dfalse;west\u003dfalse",
    "4": "futurepack:quantanium:down\u003dfalse;east\u003dfalse;north\u003dtrue;south\u003dtrue;up\u003dfalse;west\u003dfalse",
    "5": "futurepack:quantanium:down\u003dfalse;east\u003dtrue;north\u003dtrue;south\u003dfalse;up\u003dfalse;west\u003dfalse",
    "6": "futurepack:extern_cooler:facing\u003dnorth;temp\u003d0;waterlogged\u003dfalse",
    "7": "futurepack:sand_neon:",
    "8": "minecraft:blue_ice:",
    "9": "futurepack:extern_cooler:facing\u003dsouth;temp\u003d0;waterlogged\u003dfalse",
    "a": "futurepack:quantanium:down\u003dfalse;east\u003dtrue;north\u003dfalse;south\u003dfalse;up\u003dfalse;west\u003dtrue",
    "b": "futurepack:color_iron_black:",
    "c": "minecraft:air:",
    "d": "futurepack:color_gitter_pane_white:east\u003dfalse;north\u003dtrue;south\u003dtrue;waterlogged\u003dfalse;west\u003dtrue",
    "e": "minecraft:glass_pane:east\u003dfalse;north\u003dtrue;south\u003dtrue;waterlogged\u003dfalse;west\u003dfalse",
    "f": "futurepack:quantanium:down\u003dfalse;east\u003dfalse;north\u003dfalse;south\u003dfalse;up\u003dfalse;west\u003dtrue"
  }
}