{
  "data": {
    "0-0-7": "0",
    "0-0-8": "0",
    "0-0-9": "0",
    "0-0-10": "0",
    "0-0-11": "0",
    "0-0-12": "0",
    "0-0-13": "0",
    "0-1-2": "1",
    "0-1-3": "1",
    "0-1-4": "1",
    "0-1-5": "1",
    "0-1-6": "1",
    "0-1-7": "1",
    "0-1-8": "1",
    "0-1-9": "1",
    "0-1-10": "1",
    "0-1-11": "1",
    "0-1-12": "1",
    "0-1-13": "1",
    "0-1-14": "1",
    "0-1-15": "1",
    "0-2-2": "1",
    "0-2-3": "1",
    "0-2-4": "1",
    "0-2-5": "1",
    "0-2-6": "1",
    "0-2-7": "1",
    "0-2-8": "1",
    "0-2-9": "1",
    "0-2-10": "1",
    "0-2-11": "1",
    "0-2-12": "1",
    "0-2-13": "1",
    "0-2-14": "1",
    "0-2-15": "1",
    "0-3-2": "2",
    "0-3-3": "2",
    "0-3-4": "2",
    "0-3-5": "2",
    "0-3-6": "2",
    "0-3-7": "2",
    "0-3-8": "2",
    "0-3-9": "2",
    "0-3-10": "2",
    "0-3-11": "2",
    "0-3-12": "2",
    "0-3-13": "2",
    "0-3-14": "2",
    "0-3-15": "2",
    "0-4-2": "1",
    "0-4-3": "1",
    "0-4-4": "1",
    "0-4-5": "1",
    "0-4-6": "1",
    "0-4-7": "1",
    "0-4-8": "1",
    "0-4-9": "1",
    "0-4-10": "1",
    "0-4-11": "1",
    "0-4-12": "1",
    "0-4-13": "1",
    "0-4-14": "1",
    "0-4-15": "1",
    "0-5-2": "1",
    "0-5-3": "1",
    "0-5-4": "1",
    "0-5-5": "1",
    "0-5-6": "1",
    "0-5-7": "1",
    "0-5-8": "1",
    "0-5-9": "1",
    "0-5-10": "1",
    "0-5-11": "1",
    "0-5-12": "1",
    "0-5-13": "1",
    "0-5-14": "1",
    "0-5-15": "1",
    "1-0-7": "0",
    "1-0-8": "3",
    "1-0-9": "4",
    "1-0-10": "4",
    "1-0-11": "4",
    "1-0-12": "5",
    "1-0-13": "0",
    "1-1-1": "1",
    "1-1-2": "3",
    "1-1-3": "4",
    "1-1-4": "4",
    "1-1-5": "4",
    "1-1-6": "4",
    "1-1-7": "5",
    "1-1-8": "6",
    "1-1-9": "7",
    "1-1-10": "6",
    "1-1-11": "7",
    "1-1-12": "6",
    "1-1-13": "3",
    "1-1-14": "4",
    "1-1-15": "5",
    "1-1-16": "1",
    "1-2-1": "1",
    "1-2-2": "8",
    "1-2-3": "9",
    "1-2-4": "a",
    "1-2-5": "8",
    "1-2-6": "a",
    "1-2-7": "b",
    "1-2-8": "6",
    "1-2-9": "2",
    "1-2-10": "c",
    "1-2-11": "2",
    "1-2-12": "8",
    "1-2-13": "8",
    "1-2-14": "8",
    "1-2-15": "8",
    "1-2-16": "1",
    "1-3-1": "2",
    "1-3-2": "8",
    "1-3-3": "9",
    "1-3-4": "a",
    "1-3-5": "8",
    "1-3-6": "a",
    "1-3-7": "b",
    "1-3-8": "8",
    "1-3-9": "d",
    "1-3-10": "e",
    "1-3-11": "d",
    "1-3-12": "8",
    "1-3-13": "8",
    "1-3-14": "8",
    "1-3-15": "8",
    "1-3-16": "2",
    "1-4-1": "1",
    "1-4-2": "8",
    "1-4-3": "9",
    "1-4-4": "a",
    "1-4-5": "8",
    "1-4-6": "a",
    "1-4-7": "b",
    "1-4-8": "8",
    "1-4-9": "d",
    "1-4-10": "e",
    "1-4-11": "d",
    "1-4-12": "8",
    "1-4-13": "8",
    "1-4-14": "8",
    "1-4-15": "8",
    "1-4-16": "1",
    "1-5-1": "1",
    "1-5-2": "3",
    "1-5-3": "4",
    "1-5-4": "4",
    "1-5-5": "4",
    "1-5-6": "4",
    "1-5-7": "4",
    "1-5-8": "4",
    "1-5-9": "4",
    "1-5-10": "4",
    "1-5-11": "4",
    "1-5-12": "4",
    "1-5-13": "4",
    "1-5-14": "4",
    "1-5-15": "5",
    "1-5-16": "1",
    "2-0-7": "0",
    "2-0-8": "1",
    "2-0-9": "1",
    "2-0-10": "1",
    "2-0-11": "1",
    "2-0-12": "1",
    "2-0-13": "0",
    "2-1-0": "1",
    "2-1-1": "f",
    "2-1-2": "10",
    "2-1-3": "1",
    "2-1-4": "10",
    "2-1-5": "1",
    "2-1-6": "10",
    "2-1-7": "1",
    "2-1-8": "11",
    "2-1-9": "6",
    "2-1-10": "6",
    "2-1-11": "6",
    "2-1-12": "6",
    "2-1-13": "10",
    "2-1-14": "10",
    "2-1-15": "10",
    "2-1-16": "12",
    "2-1-17": "1",
    "2-2-0": "1",
    "2-2-1": "8",
    "2-2-2": "8",
    "2-2-3": "1",
    "2-2-4": "13",
    "2-2-5": "1",
    "2-2-6": "13",
    "2-2-7": "1",
    "2-2-8": "14",
    "2-2-9": "8",
    "2-2-10": "8",
    "2-2-11": "8",
    "2-2-12": "8",
    "2-2-13": "8",
    "2-2-14": "8",
    "2-2-15": "8",
    "2-2-16": "8",
    "2-2-17": "1",
    "2-3-0": "2",
    "2-3-1": "8",
    "2-3-2": "8",
    "2-3-3": "2",
    "2-3-4": "13",
    "2-3-5": "2",
    "2-3-6": "13",
    "2-3-7": "2",
    "2-3-8": "8",
    "2-3-9": "8",
    "2-3-10": "8",
    "2-3-11": "8",
    "2-3-12": "8",
    "2-3-13": "8",
    "2-3-14": "8",
    "2-3-15": "8",
    "2-3-16": "8",
    "2-3-17": "2",
    "2-4-0": "1",
    "2-4-1": "8",
    "2-4-2": "8",
    "2-4-3": "1",
    "2-4-4": "13",
    "2-4-5": "1",
    "2-4-6": "13",
    "2-4-7": "1",
    "2-4-8": "8",
    "2-4-9": "8",
    "2-4-10": "8",
    "2-4-11": "8",
    "2-4-12": "8",
    "2-4-13": "8",
    "2-4-14": "8",
    "2-4-15": "8",
    "2-4-16": "8",
    "2-4-17": "1",
    "2-5-0": "1",
    "2-5-1": "f",
    "2-5-2": "10",
    "2-5-3": "10",
    "2-5-4": "10",
    "2-5-5": "10",
    "2-5-6": "10",
    "2-5-7": "10",
    "2-5-8": "10",
    "2-5-9": "10",
    "2-5-10": "10",
    "2-5-11": "10",
    "2-5-12": "10",
    "2-5-13": "10",
    "2-5-14": "10",
    "2-5-15": "10",
    "2-5-16": "12",
    "2-5-17": "1",
    "3-0-7": "0",
    "3-0-8": "1",
    "3-0-9": "1",
    "3-0-10": "1",
    "3-0-11": "1",
    "3-0-12": "1",
    "3-0-13": "0",
    "3-1-0": "1",
    "3-1-1": "15",
    "3-1-2": "10",
    "3-1-3": "10",
    "3-1-4": "10",
    "3-1-5": "10",
    "3-1-6": "10",
    "3-1-7": "10",
    "3-1-8": "6",
    "3-1-9": "6",
    "3-1-10": "6",
    "3-1-11": "6",
    "3-1-12": "6",
    "3-1-13": "10",
    "3-1-14": "10",
    "3-1-15": "10",
    "3-1-16": "10",
    "3-1-17": "12",
    "3-2-0": "1",
    "3-2-1": "16",
    "3-2-2": "8",
    "3-2-3": "8",
    "3-2-4": "8",
    "3-2-5": "8",
    "3-2-6": "8",
    "3-2-7": "8",
    "3-2-8": "8",
    "3-2-9": "8",
    "3-2-10": "8",
    "3-2-11": "8",
    "3-2-12": "8",
    "3-2-13": "8",
    "3-2-14": "8",
    "3-2-15": "8",
    "3-2-16": "8",
    "3-2-17": "8",
    "3-3-0": "2",
    "3-3-1": "17",
    "3-3-2": "8",
    "3-3-3": "8",
    "3-3-4": "8",
    "3-3-5": "8",
    "3-3-6": "8",
    "3-3-7": "8",
    "3-3-8": "8",
    "3-3-9": "8",
    "3-3-10": "8",
    "3-3-11": "8",
    "3-3-12": "8",
    "3-3-13": "8",
    "3-3-14": "8",
    "3-3-15": "8",
    "3-3-16": "8",
    "3-3-17": "8",
    "3-4-0": "1",
    "3-4-1": "18",
    "3-4-2": "8",
    "3-4-3": "8",
    "3-4-4": "8",
    "3-4-5": "8",
    "3-4-6": "8",
    "3-4-7": "8",
    "3-4-8": "8",
    "3-4-9": "8",
    "3-4-10": "8",
    "3-4-11": "8",
    "3-4-12": "8",
    "3-4-13": "8",
    "3-4-14": "8",
    "3-4-15": "8",
    "3-4-16": "8",
    "3-4-17": "8",
    "3-5-0": "1",
    "3-5-1": "15",
    "3-5-2": "10",
    "3-5-3": "2",
    "3-5-4": "2",
    "3-5-5": "2",
    "3-5-6": "2",
    "3-5-7": "2",
    "3-5-8": "2",
    "3-5-9": "2",
    "3-5-10": "2",
    "3-5-11": "2",
    "3-5-12": "2",
    "3-5-13": "2",
    "3-5-14": "2",
    "3-5-15": "2",
    "3-5-16": "10",
    "3-5-17": "12",
    "4-0-7": "0",
    "4-0-8": "1",
    "4-0-9": "1",
    "4-0-10": "1",
    "4-0-11": "1",
    "4-0-12": "1",
    "4-0-13": "0",
    "4-1-0": "1",
    "4-1-1": "15",
    "4-1-2": "10",
    "4-1-3": "10",
    "4-1-4": "10",
    "4-1-5": "10",
    "4-1-6": "10",
    "4-1-7": "10",
    "4-1-8": "6",
    "4-1-9": "10",
    "4-1-10": "6",
    "4-1-11": "6",
    "4-1-12": "6",
    "4-1-13": "10",
    "4-1-14": "10",
    "4-1-15": "10",
    "4-1-16": "10",
    "4-1-17": "10",
    "4-2-0": "1",
    "4-2-1": "19",
    "4-2-2": "8",
    "4-2-3": "8",
    "4-2-4": "8",
    "4-2-5": "8",
    "4-2-6": "1a",
    "4-2-7": "8",
    "4-2-8": "8",
    "4-2-9": "8",
    "4-2-10": "8",
    "4-2-11": "8",
    "4-2-12": "8",
    "4-2-13": "8",
    "4-2-14": "8",
    "4-2-15": "8",
    "4-2-16": "8",
    "4-2-17": "8",
    "4-3-0": "2",
    "4-3-1": "17",
    "4-3-2": "8",
    "4-3-3": "8",
    "4-3-4": "8",
    "4-3-5": "8",
    "4-3-6": "8",
    "4-3-7": "8",
    "4-3-8": "8",
    "4-3-9": "8",
    "4-3-10": "8",
    "4-3-11": "8",
    "4-3-12": "8",
    "4-3-13": "8",
    "4-3-14": "8",
    "4-3-15": "8",
    "4-3-16": "8",
    "4-3-17": "8",
    "4-4-0": "1",
    "4-4-1": "1b",
    "4-4-2": "8",
    "4-4-3": "8",
    "4-4-4": "8",
    "4-4-5": "8",
    "4-4-6": "8",
    "4-4-7": "8",
    "4-4-8": "8",
    "4-4-9": "8",
    "4-4-10": "8",
    "4-4-11": "8",
    "4-4-12": "8",
    "4-4-13": "8",
    "4-4-14": "8",
    "4-4-15": "8",
    "4-4-16": "8",
    "4-4-17": "8",
    "4-5-0": "1",
    "4-5-1": "15",
    "4-5-2": "10",
    "4-5-3": "2",
    "4-5-4": "2",
    "4-5-5": "2",
    "4-5-6": "2",
    "4-5-7": "2",
    "4-5-8": "2",
    "4-5-9": "2",
    "4-5-10": "2",
    "4-5-11": "2",
    "4-5-12": "2",
    "4-5-13": "2",
    "4-5-14": "2",
    "4-5-15": "2",
    "4-5-16": "2",
    "4-5-17": "10",
    "5-0-7": "0",
    "5-0-8": "1",
    "5-0-9": "1",
    "5-0-10": "1",
    "5-0-11": "1",
    "5-0-12": "1",
    "5-0-13": "0",
    "5-1-0": "1",
    "5-1-1": "15",
    "5-1-2": "10",
    "5-1-3": "10",
    "5-1-4": "10",
    "5-1-5": "10",
    "5-1-6": "10",
    "5-1-7": "10",
    "5-1-8": "6",
    "5-1-9": "6",
    "5-1-10": "6",
    "5-1-11": "6",
    "5-1-12": "6",
    "5-1-13": "10",
    "5-1-14": "10",
    "5-1-15": "10",
    "5-1-16": "10",
    "5-1-17": "12",
    "5-2-0": "1",
    "5-2-1": "1c",
    "5-2-2": "8",
    "5-2-3": "8",
    "5-2-4": "8",
    "5-2-5": "8",
    "5-2-6": "8",
    "5-2-7": "8",
    "5-2-8": "8",
    "5-2-9": "8",
    "5-2-10": "8",
    "5-2-11": "8",
    "5-2-12": "8",
    "5-2-13": "8",
    "5-2-14": "8",
    "5-2-15": "8",
    "5-2-16": "8",
    "5-2-17": "8",
    "5-3-0": "2",
    "5-3-1": "17",
    "5-3-2": "8",
    "5-3-3": "8",
    "5-3-4": "8",
    "5-3-5": "8",
    "5-3-6": "8",
    "5-3-7": "8",
    "5-3-8": "8",
    "5-3-9": "8",
    "5-3-10": "8",
    "5-3-11": "8",
    "5-3-12": "8",
    "5-3-13": "8",
    "5-3-14": "8",
    "5-3-15": "8",
    "5-3-16": "8",
    "5-3-17": "8",
    "5-4-0": "1",
    "5-4-1": "1d",
    "5-4-2": "8",
    "5-4-3": "8",
    "5-4-4": "8",
    "5-4-5": "8",
    "5-4-6": "8",
    "5-4-7": "8",
    "5-4-8": "8",
    "5-4-9": "8",
    "5-4-10": "8",
    "5-4-11": "8",
    "5-4-12": "8",
    "5-4-13": "8",
    "5-4-14": "8",
    "5-4-15": "8",
    "5-4-16": "8",
    "5-4-17": "8",
    "5-5-0": "1",
    "5-5-1": "15",
    "5-5-2": "10",
    "5-5-3": "2",
    "5-5-4": "2",
    "5-5-5": "2",
    "5-5-6": "2",
    "5-5-7": "2",
    "5-5-8": "2",
    "5-5-9": "2",
    "5-5-10": "2",
    "5-5-11": "2",
    "5-5-12": "2",
    "5-5-13": "2",
    "5-5-14": "2",
    "5-5-15": "2",
    "5-5-16": "10",
    "5-5-17": "12",
    "6-0-7": "0",
    "6-0-8": "1",
    "6-0-9": "1",
    "6-0-10": "1",
    "6-0-11": "1",
    "6-0-12": "1",
    "6-0-13": "0",
    "6-1-0": "1",
    "6-1-1": "1e",
    "6-1-2": "10",
    "6-1-3": "1",
    "6-1-4": "10",
    "6-1-5": "1",
    "6-1-6": "10",
    "6-1-7": "1",
    "6-1-8": "6",
    "6-1-9": "6",
    "6-1-10": "6",
    "6-1-11": "6",
    "6-1-12": "6",
    "6-1-13": "10",
    "6-1-14": "10",
    "6-1-15": "10",
    "6-1-16": "12",
    "6-1-17": "1",
    "6-2-0": "1",
    "6-2-1": "8",
    "6-2-2": "8",
    "6-2-3": "1",
    "6-2-4": "1f",
    "6-2-5": "1",
    "6-2-6": "1f",
    "6-2-7": "1",
    "6-2-8": "8",
    "6-2-9": "8",
    "6-2-10": "8",
    "6-2-11": "11",
    "6-2-12": "8",
    "6-2-13": "8",
    "6-2-14": "8",
    "6-2-15": "8",
    "6-2-16": "8",
    "6-2-17": "1",
    "6-3-0": "2",
    "6-3-1": "8",
    "6-3-2": "8",
    "6-3-3": "2",
    "6-3-4": "1f",
    "6-3-5": "2",
    "6-3-6": "1f",
    "6-3-7": "2",
    "6-3-8": "8",
    "6-3-9": "8",
    "6-3-10": "8",
    "6-3-11": "11",
    "6-3-12": "8",
    "6-3-13": "8",
    "6-3-14": "8",
    "6-3-15": "8",
    "6-3-16": "8",
    "6-3-17": "2",
    "6-4-0": "1",
    "6-4-1": "8",
    "6-4-2": "8",
    "6-4-3": "1",
    "6-4-4": "1f",
    "6-4-5": "1",
    "6-4-6": "1f",
    "6-4-7": "1",
    "6-4-8": "8",
    "6-4-9": "8",
    "6-4-10": "8",
    "6-4-11": "14",
    "6-4-12": "8",
    "6-4-13": "8",
    "6-4-14": "8",
    "6-4-15": "8",
    "6-4-16": "8",
    "6-4-17": "1",
    "6-5-0": "1",
    "6-5-1": "1e",
    "6-5-2": "10",
    "6-5-3": "10",
    "6-5-4": "10",
    "6-5-5": "10",
    "6-5-6": "10",
    "6-5-7": "10",
    "6-5-8": "10",
    "6-5-9": "10",
    "6-5-10": "10",
    "6-5-11": "10",
    "6-5-12": "10",
    "6-5-13": "10",
    "6-5-14": "10",
    "6-5-15": "10",
    "6-5-16": "12",
    "6-5-17": "1",
    "7-0-7": "0",
    "7-0-8": "3",
    "7-0-9": "4",
    "7-0-10": "4",
    "7-0-11": "4",
    "7-0-12": "5",
    "7-0-13": "0",
    "7-1-1": "1",
    "7-1-2": "3",
    "7-1-3": "4",
    "7-1-4": "4",
    "7-1-5": "4",
    "7-1-6": "4",
    "7-1-7": "5",
    "7-1-8": "6",
    "7-1-9": "6",
    "7-1-10": "6",
    "7-1-11": "6",
    "7-1-12": "6",
    "7-1-13": "3",
    "7-1-14": "4",
    "7-1-15": "5",
    "7-1-16": "1",
    "7-2-1": "1",
    "7-2-2": "8",
    "7-2-3": "20",
    "7-2-4": "a",
    "7-2-5": "8",
    "7-2-6": "a",
    "7-2-7": "b",
    "7-2-8": "8",
    "7-2-9": "8",
    "7-2-10": "8",
    "7-2-11": "8",
    "7-2-12": "8",
    "7-2-13": "8",
    "7-2-14": "8",
    "7-2-15": "8",
    "7-2-16": "1",
    "7-3-1": "2",
    "7-3-2": "8",
    "7-3-3": "20",
    "7-3-4": "a",
    "7-3-5": "8",
    "7-3-6": "a",
    "7-3-7": "b",
    "7-3-8": "8",
    "7-3-9": "8",
    "7-3-10": "8",
    "7-3-11": "21",
    "7-3-12": "8",
    "7-3-13": "8",
    "7-3-14": "8",
    "7-3-15": "8",
    "7-3-16": "2",
    "7-4-1": "1",
    "7-4-2": "8",
    "7-4-3": "20",
    "7-4-4": "a",
    "7-4-5": "8",
    "7-4-6": "a",
    "7-4-7": "b",
    "7-4-8": "8",
    "7-4-9": "8",
    "7-4-10": "1",
    "7-4-11": "6",
    "7-4-12": "1",
    "7-4-13": "8",
    "7-4-14": "8",
    "7-4-15": "8",
    "7-4-16": "1",
    "7-5-1": "1",
    "7-5-2": "3",
    "7-5-3": "4",
    "7-5-4": "4",
    "7-5-5": "4",
    "7-5-6": "4",
    "7-5-7": "4",
    "7-5-8": "4",
    "7-5-9": "4",
    "7-5-10": "4",
    "7-5-11": "4",
    "7-5-12": "4",
    "7-5-13": "4",
    "7-5-14": "4",
    "7-5-15": "5",
    "7-5-16": "1",
    "8-0-6": "0",
    "8-0-7": "0",
    "8-0-8": "0",
    "8-0-9": "0",
    "8-0-10": "0",
    "8-0-11": "0",
    "8-0-12": "0",
    "8-0-13": "0",
    "8-1-2": "1",
    "8-1-3": "1",
    "8-1-4": "1",
    "8-1-5": "1",
    "8-1-6": "1",
    "8-1-7": "1",
    "8-1-8": "1",
    "8-1-9": "1",
    "8-1-10": "1",
    "8-1-11": "1",
    "8-1-12": "1",
    "8-1-13": "1",
    "8-1-14": "1",
    "8-1-15": "1",
    "8-2-2": "1",
    "8-2-3": "1",
    "8-2-4": "1",
    "8-2-5": "1",
    "8-2-6": "1",
    "8-2-7": "1",
    "8-2-8": "1",
    "8-2-9": "1",
    "8-2-10": "1",
    "8-2-11": "1",
    "8-2-12": "1",
    "8-2-13": "1",
    "8-2-14": "1",
    "8-2-15": "1",
    "8-3-2": "2",
    "8-3-3": "2",
    "8-3-4": "2",
    "8-3-5": "2",
    "8-3-6": "2",
    "8-3-7": "2",
    "8-3-8": "2",
    "8-3-9": "2",
    "8-3-10": "2",
    "8-3-11": "2",
    "8-3-12": "2",
    "8-3-13": "2",
    "8-3-14": "2",
    "8-3-15": "2",
    "8-4-2": "1",
    "8-4-3": "1",
    "8-4-4": "1",
    "8-4-5": "1",
    "8-4-6": "1",
    "8-4-7": "1",
    "8-4-8": "1",
    "8-4-9": "1",
    "8-4-10": "1",
    "8-4-11": "10",
    "8-4-12": "1",
    "8-4-13": "1",
    "8-4-14": "1",
    "8-4-15": "1",
    "8-5-2": "1",
    "8-5-3": "1",
    "8-5-4": "1",
    "8-5-5": "1",
    "8-5-6": "1",
    "8-5-7": "1",
    "8-5-8": "1",
    "8-5-9": "1",
    "8-5-10": "1",
    "8-5-11": "1",
    "8-5-12": "1",
    "8-5-13": "1",
    "8-5-14": "1",
    "8-5-15": "1"
  },
   "inventorys": [
    {"pos": "4-3-1", "loot": "futurepack:chests/ld_special"},
	{"pos": "3-3-1", "loot": "futurepack:chests/ld_common"},
	{"pos": "5-3-1", "loot": "futurepack:chests/ld_common"}
  ],
  
  "doors": [
    {
      "facing": 3,
      "w": 3,
      "h": 3,
      "d": 1,
      "start": "3,2,17"
    }
  ],
  "stateMap": {
    "0": "minecraft:stone:",
    "1": "futurepack:color_iron_gray:",
    "10": "futurepack:color_iron_black:",
    "11": "minecraft:lava:level\u003d8",
    "12": "futurepack:quantanium:down\u003dfalse;east\u003dfalse;north\u003dfalse;south\u003dfalse;up\u003dfalse;west\u003dfalse",
    "13": "futurepack:color_gitter_pane_purple:east\u003dfalse;north\u003dtrue;south\u003dtrue;waterlogged\u003dfalse;west\u003dtrue",
    "14": "minecraft:lava:level\u003d2",
    "15": "futurepack:quantanium:down\u003dfalse;east\u003dtrue;north\u003dfalse;south\u003dfalse;up\u003dfalse;west\u003dtrue",
    "16": "futurepack:color_iron_stair_black:facing\u003deast;half\u003dtop;shape\u003douter_left;waterlogged\u003dfalse",
    "17": "futurepack:wardrobe_black_large_1:",
    "18": "futurepack:color_iron_stair_black:facing\u003deast;half\u003dbottom;shape\u003douter_left;waterlogged\u003dfalse",
    "19": "futurepack:color_iron_stair_black:facing\u003dnorth;half\u003dtop;shape\u003dstraight;waterlogged\u003dfalse",
    "1a": "minecraft:torch:",
    "1b": "futurepack:color_iron_stair_black:facing\u003dnorth;half\u003dbottom;shape\u003dstraight;waterlogged\u003dfalse",
    "1c": "futurepack:color_iron_stair_black:facing\u003dwest;half\u003dtop;shape\u003douter_right;waterlogged\u003dfalse",
    "1d": "futurepack:color_iron_stair_black:facing\u003dwest;half\u003dbottom;shape\u003douter_right;waterlogged\u003dfalse",
    "1e": "futurepack:quantanium:down\u003dfalse;east\u003dfalse;north\u003dfalse;south\u003dfalse;up\u003dfalse;west\u003dtrue",
    "1f": "futurepack:color_gitter_pane_purple:east\u003dtrue;north\u003dtrue;south\u003dtrue;waterlogged\u003dfalse;west\u003dfalse",
    "2": "futurepack:color_iron_purple:",
    "20": "futurepack:color_gitter_pane_purple:east\u003dtrue;north\u003dfalse;south\u003dtrue;waterlogged\u003dfalse;west\u003dfalse",
    "21": "futurepack:color_iron_slab_purple:type\u003dtop;waterlogged\u003dfalse",
    "3": "futurepack:quantanium:down\u003dfalse;east\u003dfalse;north\u003dfalse;south\u003dtrue;up\u003dfalse;west\u003dfalse",
    "4": "futurepack:quantanium:down\u003dfalse;east\u003dfalse;north\u003dtrue;south\u003dtrue;up\u003dfalse;west\u003dfalse",
    "5": "futurepack:quantanium:down\u003dfalse;east\u003dfalse;north\u003dtrue;south\u003dfalse;up\u003dfalse;west\u003dfalse",
    "6": "minecraft:lava:level\u003d0",
    "7": "futurepack:color_luftung_gray:",
    "8": "minecraft:air:",
    "9": "futurepack:color_gitter_pane_black:east\u003dtrue;north\u003dfalse;south\u003dtrue;waterlogged\u003dfalse;west\u003dfalse",
    "a": "futurepack:sand_neon:",
    "b": "futurepack:color_gitter_pane_purple:east\u003dtrue;north\u003dtrue;south\u003dfalse;waterlogged\u003dfalse;west\u003dtrue",
    "c": "futurepack:color_gitter_pane_gray:east\u003dfalse;north\u003dtrue;south\u003dtrue;waterlogged\u003dfalse;west\u003dtrue",
    "d": "futurepack:color_iron_fence_gray:east\u003dfalse;north\u003dfalse;south\u003dfalse;waterlogged\u003dfalse;west\u003dtrue",
    "e": "futurepack:color_gitter_pane_gray:east\u003dfalse;north\u003dfalse;south\u003dfalse;waterlogged\u003dfalse;west\u003dfalse",
    "f": "futurepack:quantanium:down\u003dfalse;east\u003dtrue;north\u003dfalse;south\u003dfalse;up\u003dfalse;west\u003dfalse"
  }
}