{
    "data": 
    {
        "0-0-1": "futurepack:color_iron:7",
        "0-0-2": "futurepack:color_iron:7",
        "0-0-3": "futurepack:color_iron:7",
        "0-0-4": "futurepack:color_iron:7",
        "0-0-5": "futurepack:color_iron:7",
        "0-1-1": "futurepack:color_iron:7",
        "0-1-2": "minecraft:air:0",
        "0-1-3": "minecraft:air:0",
        "0-1-4": "minecraft:air:0",
        "0-1-5": "futurepack:color_iron:7",
        "0-2-1": "futurepack:color_iron:15",
        "0-2-2": "minecraft:air:0",
        "0-2-3": "minecraft:air:0",
        "0-2-4": "minecraft:air:0",
        "0-2-5": "futurepack:color_iron:15",
        "0-3-1": "futurepack:color_iron:0",
        "0-3-2": "minecraft:air:0",
        "0-3-3": "minecraft:air:0",
        "0-3-4": "minecraft:air:0",
        "0-3-5": "futurepack:color_iron:0",
        "0-4-1": "futurepack:color_iron:0",
        "0-4-2": "futurepack:color_iron:0",
        "0-4-3": "futurepack:color_iron:0",
        "0-4-4": "futurepack:color_iron:0",
        "0-4-5": "futurepack:color_iron:0",
        "0-5-1": "futurepack:color_iron:7",
        "0-5-2": "futurepack:color_iron:7",
        "0-5-3": "futurepack:color_iron:7",
        "0-5-4": "futurepack:color_iron:7",
        "0-5-5": "futurepack:color_iron:7",
        "0-6-1": "futurepack:color_iron:7",
        "0-6-2": "minecraft:air:0",
        "0-6-3": "minecraft:air:0",
        "0-6-4": "minecraft:air:0",
        "0-6-5": "futurepack:color_iron:7",
        "0-7-1": "futurepack:color_iron:15",
        "0-7-2": "minecraft:air:0",
        "0-7-3": "minecraft:air:0",
        "0-7-4": "minecraft:air:0",
        "0-7-5": "futurepack:color_iron:15",
        "0-8-1": "futurepack:color_iron:0",
        "0-8-2": "minecraft:air:0",
        "0-8-3": "minecraft:air:0",
        "0-8-4": "minecraft:air:0",
        "0-8-5": "futurepack:color_iron:0",
        "0-9-1": "futurepack:color_iron:0",
        "0-9-2": "futurepack:color_iron:0",
        "0-9-3": "futurepack:color_iron:0",
        "0-9-4": "futurepack:color_iron:0",
        "0-9-5": "futurepack:color_iron:0",
        "1-0-1": "futurepack:color_iron:7",
        "1-0-2": "futurepack:color_iron:7",
        "1-0-3": "futurepack:color_iron:7",
        "1-0-4": "futurepack:color_iron:7",
        "1-0-5": "futurepack:color_iron:7",
        "1-1-1": "futurepack:color_iron:7",
        "1-1-2": "minecraft:air:0",
        "1-1-3": "minecraft:air:0",
        "1-1-4": "minecraft:air:0",
        "1-1-5": "futurepack:color_iron:7",
        "1-2-1": "futurepack:color_iron:1",
        "1-2-2": "minecraft:air:0",
        "1-2-3": "minecraft:air:0",
        "1-2-4": "minecraft:air:0",
        "1-2-5": "futurepack:color_iron:1",
        "1-3-1": "futurepack:color_iron:0",
        "1-3-2": "minecraft:air:0",
        "1-3-3": "minecraft:air:0",
        "1-3-4": "minecraft:air:0",
        "1-3-5": "futurepack:color_iron:0",
        "1-4-1": "futurepack:color_iron:0",
        "1-4-2": "futurepack:color_iron:0",
        "1-4-3": "futurepack:color_iron:0",
        "1-4-4": "futurepack:color_iron:0",
        "1-4-5": "futurepack:color_iron:0",
        "1-5-1": "futurepack:color_iron:7",
        "1-5-2": "futurepack:color_iron:7",
        "1-5-3": "futurepack:color_iron:7",
        "1-5-4": "futurepack:color_iron:7",
        "1-5-5": "futurepack:color_iron:7",
        "1-6-1": "futurepack:color_iron:7",
        "1-6-2": "minecraft:air:0",
        "1-6-3": "minecraft:air:0",
        "1-6-4": "minecraft:air:0",
        "1-6-5": "futurepack:color_iron:7",
        "1-7-1": "futurepack:color_iron:1",
        "1-7-2": "minecraft:air:0",
        "1-7-3": "minecraft:air:0",
        "1-7-4": "minecraft:air:0",
        "1-7-5": "futurepack:color_iron:1",
        "1-8-1": "futurepack:color_iron:0",
        "1-8-2": "minecraft:air:0",
        "1-8-3": "minecraft:air:0",
        "1-8-4": "minecraft:air:0",
        "1-8-5": "futurepack:color_iron:0",
        "1-9-1": "futurepack:color_iron:0",
        "1-9-2": "futurepack:color_iron:0",
        "1-9-3": "futurepack:color_iron:0",
        "1-9-4": "futurepack:color_iron:0",
        "1-9-5": "futurepack:color_iron:0",
        "2-0-0": "futurepack:color_iron:7",
        "2-0-1": "futurepack:color_iron:7",
        "2-0-2": "futurepack:color_iron:7",
        "2-0-3": "futurepack:color_iron:7",
        "2-0-4": "futurepack:color_iron:7",
        "2-0-5": "futurepack:color_iron:7",
        "2-0-6": "futurepack:color_iron:7",
        "2-1-0": "futurepack:color_iron:7",
        "2-1-1": "futurepack:color_iron_stair7:1",
        "2-1-2": "minecraft:air:0",
        "2-1-3": "minecraft:air:0",
        "2-1-4": "minecraft:air:0",
        "2-1-5": "futurepack:color_iron_stair7:6",
        "2-1-6": "futurepack:color_iron:7",
        "2-2-0": "futurepack:color_iron:15",
        "2-2-1": "minecraft:air:0",
        "2-2-2": "minecraft:air:0",
        "2-2-3": "minecraft:air:0",
        "2-2-4": "minecraft:air:0",
        "2-2-5": "futurepack:color_iron_fence:7",
        "2-2-6": "futurepack:color_iron:15",
        "2-3-0": "futurepack:color_iron:0",
        "2-3-1": "futurepack:color_iron_stair0:5",
        "2-3-2": "minecraft:air:0",
        "2-3-3": "minecraft:air:0",
        "2-3-4": "minecraft:air:0",
        "2-3-5": "futurepack:color_iron_stair7:2",
        "2-3-6": "futurepack:color_iron:0",
        "2-4-0": "futurepack:color_iron:0",
        "2-4-1": "futurepack:color_iron:0",
        "2-4-2": "futurepack:color_plasma_on:0",
        "2-4-3": "futurepack:color_iron:0",
        "2-4-4": "futurepack:color_plasma_on:0",
        "2-4-5": "futurepack:color_iron:0",
        "2-4-6": "futurepack:color_iron:0",
        "2-5-0": "futurepack:color_iron:7",
        "2-5-1": "futurepack:color_iron:7",
        "2-5-2": "futurepack:color_iron:7",
        "2-5-3": "futurepack:color_iron:7",
        "2-5-4": "futurepack:color_iron:7",
        "2-5-5": "futurepack:color_iron:7",
        "2-5-6": "futurepack:color_iron:7",
        "2-6-0": "futurepack:color_iron:7",
        "2-6-1": "futurepack:color_iron_stair7:1",
        "2-6-2": "minecraft:air:0",
        "2-6-3": "minecraft:air:0",
        "2-6-4": "minecraft:air:0",
        "2-6-5": "futurepack:color_iron_stair7:6",
        "2-6-6": "futurepack:color_iron:7",
        "2-7-0": "futurepack:color_iron:15",
        "2-7-1": "minecraft:air:0",
        "2-7-2": "minecraft:air:0",
        "2-7-3": "minecraft:air:0",
        "2-7-4": "minecraft:air:0",
        "2-7-5": "futurepack:color_iron_fence:7",
        "2-7-6": "futurepack:color_iron:15",
        "2-8-0": "futurepack:color_iron:0",
        "2-8-1": "futurepack:color_iron_stair0:5",
        "2-8-2": "minecraft:air:0",
        "2-8-3": "minecraft:air:0",
        "2-8-4": "minecraft:air:0",
        "2-8-5": "futurepack:color_iron_stair7:2",
        "2-8-6": "futurepack:color_iron:0",
        "2-9-0": "futurepack:color_iron:0",
        "2-9-1": "futurepack:color_iron:0",
        "2-9-2": "futurepack:color_plasma_on:0",
        "2-9-3": "futurepack:color_iron:0",
        "2-9-4": "futurepack:color_plasma_on:0",
        "2-9-5": "futurepack:color_iron:0",
        "2-9-6": "futurepack:color_iron:0",
        "3-0-0": "futurepack:wire:0",
        "3-0-1": "futurepack:beam:1",
        "3-0-2": "futurepack:color_iron:7",
        "3-0-3": "futurepack:color_iron:7",
        "3-0-4": "futurepack:color_iron:7",
        "3-0-5": "futurepack:color_iron:7",
        "3-0-6": "futurepack:color_iron:7",
        "3-1-0": "futurepack:baterie_box:2",
        "3-1-1": "minecraft:air:0",
        "3-1-2": "minecraft:air:0",
        "3-1-3": "minecraft:air:0",
        "3-1-4": "minecraft:air:0",
        "3-1-5": "futurepack:color_iron_stair7:6",
        "3-1-6": "futurepack:color_iron:7",
        "3-2-0": "futurepack:color_iron:1",
        "3-2-1": "minecraft:air:0",
        "3-2-2": "minecraft:air:0",
        "3-2-3": "minecraft:air:0",
        "3-2-4": "minecraft:air:0",
        "3-2-5": "minecraft:air:0",
        "3-2-6": "futurepack:color_luftung:1",
        "3-3-0": "futurepack:color_iron:0",
        "3-3-1": "minecraft:air:0",
        "3-3-2": "minecraft:air:0",
        "3-3-3": "minecraft:air:0",
        "3-3-4": "minecraft:air:0",
        "3-3-5": "futurepack:color_iron_stair7:2",
        "3-3-6": "futurepack:color_iron:0",
        "3-4-0": "futurepack:color_iron:0",
        "3-4-1": "futurepack:color_iron:0",
        "3-4-2": "futurepack:color_iron:0",
        "3-4-3": "futurepack:color_iron:0",
        "3-4-4": "futurepack:color_iron:0",
        "3-4-5": "futurepack:color_iron:0",
        "3-4-6": "futurepack:color_iron:0",
        "3-5-0": "futurepack:wire:0",
        "3-5-1": "futurepack:beam:2",
        "3-5-2": "futurepack:color_iron:7",
        "3-5-3": "futurepack:color_iron:7",
        "3-5-4": "futurepack:color_iron:7",
        "3-5-5": "futurepack:color_iron:7",
        "3-5-6": "futurepack:color_iron:7",
        "3-6-0": "futurepack:baterie_box:2",
        "3-6-1": "minecraft:air:0",
        "3-6-2": "minecraft:air:0",
        "3-6-3": "minecraft:air:0",
        "3-6-4": "minecraft:air:0",
        "3-6-5": "futurepack:color_iron_stair7:6",
        "3-6-6": "futurepack:color_iron:7",
        "3-7-0": "futurepack:color_iron:1",
        "3-7-1": "minecraft:air:0",
        "3-7-2": "minecraft:air:0",
        "3-7-3": "minecraft:air:0",
        "3-7-4": "minecraft:air:0",
        "3-7-5": "minecraft:air:0",
        "3-7-6": "futurepack:color_luftung:1",
        "3-8-0": "futurepack:color_iron:0",
        "3-8-1": "minecraft:air:0",
        "3-8-2": "minecraft:air:0",
        "3-8-3": "minecraft:air:0",
        "3-8-4": "minecraft:air:0",
        "3-8-5": "futurepack:color_iron_stair7:2",
        "3-8-6": "futurepack:color_iron:0",
        "3-9-0": "futurepack:color_iron:0",
        "3-9-1": "futurepack:color_iron:0",
        "3-9-2": "futurepack:color_iron:0",
        "3-9-3": "futurepack:color_iron:0",
        "3-9-4": "futurepack:color_iron:0",
        "3-9-5": "futurepack:color_iron:0",
        "3-9-6": "futurepack:color_iron:0",
        "4-0-0": "futurepack:color_iron:7",
        "4-0-1": "futurepack:color_iron:7",
        "4-0-2": "futurepack:color_iron:7",
        "4-0-3": "futurepack:color_iron:7",
        "4-0-4": "futurepack:color_iron:7",
        "4-0-5": "futurepack:color_iron:7",
        "4-0-6": "futurepack:color_iron:7",
        "4-1-0": "futurepack:color_iron:7",
        "4-1-1": "futurepack:color_iron_stair7:0",
        "4-1-2": "minecraft:air:0",
        "4-1-3": "minecraft:air:0",
        "4-1-4": "minecraft:air:0",
        "4-1-5": "futurepack:color_iron_stair7:6",
        "4-1-6": "futurepack:color_iron:7",
        "4-2-0": "futurepack:color_iron:15",
        "4-2-1": "minecraft:air:0",
        "4-2-2": "minecraft:air:0",
        "4-2-3": "minecraft:air:0",
        "4-2-4": "minecraft:air:0",
        "4-2-5": "futurepack:color_iron_fence:7",
        "4-2-6": "futurepack:color_iron:15",
        "4-3-0": "futurepack:color_iron:0",
        "4-3-1": "futurepack:color_iron_stair0:4",
        "4-3-2": "minecraft:air:0",
        "4-3-3": "minecraft:air:0",
        "4-3-4": "minecraft:air:0",
        "4-3-5": "futurepack:color_iron_stair7:2",
        "4-3-6": "futurepack:color_iron:0",
        "4-4-0": "futurepack:color_iron:0",
        "4-4-1": "futurepack:color_iron:0",
        "4-4-2": "futurepack:color_iron:0",
        "4-4-3": "futurepack:color_plasma_on:0",
        "4-4-4": "futurepack:color_iron:0",
        "4-4-5": "futurepack:color_iron:0",
        "4-4-6": "futurepack:color_iron:0",
        "4-5-0": "futurepack:color_iron:7",
        "4-5-1": "futurepack:color_iron:7",
        "4-5-2": "futurepack:color_iron:7",
        "4-5-3": "futurepack:color_iron:7",
        "4-5-4": "futurepack:color_iron:7",
        "4-5-5": "futurepack:color_iron:7",
        "4-5-6": "futurepack:color_iron:7",
        "4-6-0": "futurepack:color_iron:7",
        "4-6-1": "futurepack:color_iron_stair7:0",
        "4-6-2": "minecraft:air:0",
        "4-6-3": "minecraft:air:0",
        "4-6-4": "minecraft:air:0",
        "4-6-5": "futurepack:color_iron_stair7:6",
        "4-6-6": "futurepack:color_iron:7",
        "4-7-0": "futurepack:color_iron:15",
        "4-7-1": "minecraft:air:0",
        "4-7-2": "minecraft:air:0",
        "4-7-3": "minecraft:air:0",
        "4-7-4": "minecraft:air:0",
        "4-7-5": "futurepack:color_iron_fence:7",
        "4-7-6": "futurepack:color_iron:15",
        "4-8-0": "futurepack:color_iron:0",
        "4-8-1": "futurepack:color_iron_stair0:4",
        "4-8-2": "minecraft:air:0",
        "4-8-3": "minecraft:air:0",
        "4-8-4": "minecraft:air:0",
        "4-8-5": "futurepack:color_iron_stair7:2",
        "4-8-6": "futurepack:color_iron:0",
        "4-9-0": "futurepack:color_iron:0",
        "4-9-1": "futurepack:color_iron:0",
        "4-9-2": "futurepack:color_iron:0",
        "4-9-3": "futurepack:color_plasma_on:0",
        "4-9-4": "futurepack:color_iron:0",
        "4-9-5": "futurepack:color_iron:0",
        "4-9-6": "futurepack:color_iron:0",
        "5-0-1": "futurepack:color_iron:7",
        "5-0-2": "futurepack:color_iron:7",
        "5-0-3": "futurepack:color_iron:7",
        "5-0-4": "futurepack:color_iron:7",
        "5-0-5": "futurepack:color_iron:7",
        "5-1-1": "futurepack:color_iron:7",
        "5-1-2": "minecraft:air:0",
        "5-1-3": "minecraft:air:0",
        "5-1-4": "minecraft:air:0",
        "5-1-5": "futurepack:color_iron:7",
        "5-2-1": "futurepack:color_iron:1",
        "5-2-2": "minecraft:air:0",
        "5-2-3": "minecraft:air:0",
        "5-2-4": "minecraft:air:0",
        "5-2-5": "futurepack:color_iron:1",
        "5-3-1": "futurepack:color_iron:0",
        "5-3-2": "minecraft:air:0",
        "5-3-3": "minecraft:air:0",
        "5-3-4": "minecraft:air:0",
        "5-3-5": "futurepack:color_iron:0",
        "5-4-1": "futurepack:color_iron:0",
        "5-4-2": "futurepack:color_iron:0",
        "5-4-3": "futurepack:color_iron:0",
        "5-4-4": "futurepack:color_iron:0",
        "5-4-5": "futurepack:color_iron:0",
        "5-5-1": "futurepack:color_iron:7",
        "5-5-2": "futurepack:color_iron:7",
        "5-5-3": "futurepack:color_iron:7",
        "5-5-4": "futurepack:color_iron:7",
        "5-5-5": "futurepack:color_iron:7",
        "5-6-1": "futurepack:color_iron:7",
        "5-6-2": "minecraft:air:0",
        "5-6-3": "minecraft:air:0",
        "5-6-4": "minecraft:air:0",
        "5-6-5": "futurepack:color_iron:7",
        "5-7-1": "futurepack:color_iron:1",
        "5-7-2": "minecraft:air:0",
        "5-7-3": "minecraft:air:0",
        "5-7-4": "minecraft:air:0",
        "5-7-5": "futurepack:color_iron:1",
        "5-8-1": "futurepack:color_iron:0",
        "5-8-2": "minecraft:air:0",
        "5-8-3": "minecraft:air:0",
        "5-8-4": "minecraft:air:0",
        "5-8-5": "futurepack:color_iron:0",
        "5-9-1": "futurepack:color_iron:0",
        "5-9-2": "futurepack:color_iron:0",
        "5-9-3": "futurepack:color_iron:0",
        "5-9-4": "futurepack:color_iron:0",
        "5-9-5": "futurepack:color_iron:0",
        "6-0-1": "futurepack:color_iron:7",
        "6-0-2": "futurepack:color_iron:7",
        "6-0-3": "futurepack:color_iron:7",
        "6-0-4": "futurepack:color_iron:7",
        "6-0-5": "futurepack:color_iron:7",
        "6-1-1": "futurepack:color_iron:7",
        "6-1-2": "minecraft:air:0",
        "6-1-3": "minecraft:air:0",
        "6-1-4": "minecraft:air:0",
        "6-1-5": "futurepack:color_iron:7",
        "6-2-1": "futurepack:color_iron:15",
        "6-2-2": "minecraft:air:0",
        "6-2-3": "minecraft:air:0",
        "6-2-4": "minecraft:air:0",
        "6-2-5": "futurepack:color_iron:15",
        "6-3-1": "futurepack:color_iron:0",
        "6-3-2": "minecraft:air:0",
        "6-3-3": "minecraft:air:0",
        "6-3-4": "minecraft:air:0",
        "6-3-5": "futurepack:color_iron:0",
        "6-4-1": "futurepack:color_iron:0",
        "6-4-2": "futurepack:color_iron:0",
        "6-4-3": "futurepack:color_iron:0",
        "6-4-4": "futurepack:color_iron:0",
        "6-4-5": "futurepack:color_iron:0",
        "6-5-1": "futurepack:color_iron:7",
        "6-5-2": "futurepack:color_iron:7",
        "6-5-3": "futurepack:color_iron:7",
        "6-5-4": "futurepack:color_iron:7",
        "6-5-5": "futurepack:color_iron:7",
        "6-6-1": "futurepack:color_iron:7",
        "6-6-2": "minecraft:air:0",
        "6-6-3": "minecraft:air:0",
        "6-6-4": "minecraft:air:0",
        "6-6-5": "futurepack:color_iron:7",
        "6-7-1": "futurepack:color_iron:15",
        "6-7-2": "minecraft:air:0",
        "6-7-3": "minecraft:air:0",
        "6-7-4": "minecraft:air:0",
        "6-7-5": "futurepack:color_iron:15",
        "6-8-1": "futurepack:color_iron:0",
        "6-8-2": "minecraft:air:0",
        "6-8-3": "minecraft:air:0",
        "6-8-4": "minecraft:air:0",
        "6-8-5": "futurepack:color_iron:0",
        "6-9-1": "futurepack:color_iron:0",
        "6-9-2": "futurepack:color_iron:0",
        "6-9-3": "futurepack:color_iron:0",
        "6-9-4": "futurepack:color_iron:0",
        "6-9-5": "futurepack:color_iron:0",
        "7-0-1": "futurepack:color_iron:7",
        "7-0-2": "futurepack:color_iron:7",
        "7-0-3": "futurepack:color_iron:7",
        "7-0-4": "futurepack:color_iron:7",
        "7-0-5": "futurepack:color_iron:7",
        "7-1-1": "futurepack:color_iron:7",
        "7-1-2": "minecraft:air:0",
        "7-1-3": "minecraft:air:0",
        "7-1-4": "minecraft:air:0",
        "7-1-5": "futurepack:color_iron:7",
        "7-2-1": "futurepack:color_iron:1",
        "7-2-2": "minecraft:air:0",
        "7-2-3": "minecraft:air:0",
        "7-2-4": "minecraft:air:0",
        "7-2-5": "futurepack:color_iron:1",
        "7-3-1": "futurepack:color_iron:0",
        "7-3-2": "minecraft:air:0",
        "7-3-3": "minecraft:air:0",
        "7-3-4": "minecraft:air:0",
        "7-3-5": "futurepack:color_iron:0",
        "7-4-1": "futurepack:color_iron:0",
        "7-4-2": "futurepack:color_iron:0",
        "7-4-3": "futurepack:color_iron:0",
        "7-4-4": "futurepack:color_iron:0",
        "7-4-5": "futurepack:color_iron:0",
        "7-5-1": "futurepack:color_iron:7",
        "7-5-2": "futurepack:color_iron:7",
        "7-5-3": "futurepack:color_iron:7",
        "7-5-4": "futurepack:color_iron:7",
        "7-5-5": "futurepack:color_iron:7",
        "7-6-1": "futurepack:color_iron:7",
        "7-6-2": "minecraft:air:0",
        "7-6-3": "minecraft:air:0",
        "7-6-4": "minecraft:air:0",
        "7-6-5": "futurepack:color_iron:7",
        "7-7-1": "futurepack:color_iron:1",
        "7-7-2": "minecraft:air:0",
        "7-7-3": "minecraft:air:0",
        "7-7-4": "minecraft:air:0",
        "7-7-5": "futurepack:color_iron:1",
        "7-8-1": "futurepack:color_iron:0",
        "7-8-2": "minecraft:air:0",
        "7-8-3": "minecraft:air:0",
        "7-8-4": "minecraft:air:0",
        "7-8-5": "futurepack:color_iron:0",
        "7-9-1": "futurepack:color_iron:0",
        "7-9-2": "futurepack:color_iron:0",
        "7-9-3": "futurepack:color_iron:0",
        "7-9-4": "futurepack:color_iron:0",
        "7-9-5": "futurepack:color_iron:0",
        "8-0-1": "futurepack:color_iron:7",
        "8-0-2": "futurepack:color_iron:7",
        "8-0-3": "futurepack:color_iron:7",
        "8-0-4": "futurepack:color_iron:7",
        "8-0-5": "futurepack:color_iron:7",
        "8-1-1": "futurepack:color_iron:7",
        "8-1-2": "minecraft:air:0",
        "8-1-3": "minecraft:air:0",
        "8-1-4": "minecraft:air:0",
        "8-1-5": "futurepack:color_iron:7",
        "8-2-1": "futurepack:color_iron:15",
        "8-2-2": "minecraft:air:0",
        "8-2-3": "minecraft:air:0",
        "8-2-4": "minecraft:air:0",
        "8-2-5": "futurepack:color_iron:15",
        "8-3-1": "futurepack:color_iron:0",
        "8-3-2": "minecraft:air:0",
        "8-3-3": "minecraft:air:0",
        "8-3-4": "minecraft:air:0",
        "8-3-5": "futurepack:color_iron:0",
        "8-4-1": "futurepack:color_iron:0",
        "8-4-2": "futurepack:color_iron:0",
        "8-4-3": "futurepack:color_iron:0",
        "8-4-4": "futurepack:color_iron:0",
        "8-4-5": "futurepack:color_iron:0",
        "8-5-1": "futurepack:color_iron:7",
        "8-5-2": "futurepack:color_iron:7",
        "8-5-3": "futurepack:color_iron:7",
        "8-5-4": "futurepack:color_iron:7",
        "8-5-5": "futurepack:color_iron:7",
        "8-6-1": "futurepack:color_iron:7",
        "8-6-2": "minecraft:air:0",
        "8-6-3": "minecraft:air:0",
        "8-6-4": "minecraft:air:0",
        "8-6-5": "futurepack:color_iron:7",
        "8-7-1": "futurepack:color_iron:15",
        "8-7-2": "minecraft:air:0",
        "8-7-3": "minecraft:air:0",
        "8-7-4": "minecraft:air:0",
        "8-7-5": "futurepack:color_iron:15",
        "8-8-1": "futurepack:color_iron:0",
        "8-8-2": "minecraft:air:0",
        "8-8-3": "minecraft:air:0",
        "8-8-4": "minecraft:air:0",
        "8-8-5": "futurepack:color_iron:0",
        "8-9-1": "futurepack:color_iron:0",
        "8-9-2": "futurepack:color_iron:0",
        "8-9-3": "futurepack:color_iron:0",
        "8-9-4": "futurepack:color_iron:0",
        "8-9-5": "futurepack:color_iron:0",
        "9-0-0": "futurepack:color_iron:7",
        "9-0-1": "futurepack:color_iron:7",
        "9-0-2": "futurepack:color_iron:7",
        "9-0-3": "futurepack:color_iron:7",
        "9-0-4": "futurepack:color_iron:7",
        "9-0-5": "futurepack:color_iron:7",
        "9-0-6": "futurepack:color_iron:7",
        "9-1-0": "futurepack:color_iron:7",
        "9-1-1": "futurepack:color_iron_stair7:7",
        "9-1-2": "minecraft:air:0",
        "9-1-3": "minecraft:air:0",
        "9-1-4": "minecraft:air:0",
        "9-1-5": "futurepack:color_iron_stair7:1",
        "9-1-6": "futurepack:color_iron:7",
        "9-2-0": "futurepack:color_iron:1",
        "9-2-1": "futurepack:color_iron_fence:7",
        "9-2-2": "minecraft:air:0",
        "9-2-3": "minecraft:air:0",
        "9-2-4": "minecraft:air:0",
        "9-2-5": "minecraft:air:0",
        "9-2-6": "futurepack:color_iron:1",
        "9-3-0": "futurepack:color_iron:0",
        "9-3-1": "futurepack:color_iron_stair7:3",
        "9-3-2": "minecraft:air:0",
        "9-3-3": "minecraft:air:0",
        "9-3-4": "minecraft:air:0",
        "9-3-5": "futurepack:color_iron_stair0:5",
        "9-3-6": "futurepack:color_iron:0",
        "9-4-0": "futurepack:color_iron:0",
        "9-4-1": "futurepack:color_iron:0",
        "9-4-2": "futurepack:color_iron:0",
        "9-4-3": "futurepack:color_plasma_on:0",
        "9-4-4": "futurepack:color_iron:0",
        "9-4-5": "futurepack:color_iron:0",
        "9-4-6": "futurepack:color_iron:0",
        "9-5-0": "futurepack:color_iron:7",
        "9-5-1": "futurepack:color_iron:7",
        "9-5-2": "futurepack:color_iron:7",
        "9-5-3": "futurepack:color_iron:7",
        "9-5-4": "futurepack:color_iron:7",
        "9-5-5": "futurepack:color_iron:7",
        "9-5-6": "futurepack:color_iron:7",
        "9-6-0": "futurepack:color_iron:7",
        "9-6-1": "futurepack:color_iron_stair7:7",
        "9-6-2": "minecraft:air:0",
        "9-6-3": "minecraft:air:0",
        "9-6-4": "minecraft:air:0",
        "9-6-5": "futurepack:color_iron_stair7:1",
        "9-6-6": "futurepack:color_iron:7",
        "9-7-0": "futurepack:color_iron:1",
        "9-7-1": "futurepack:color_iron_fence:7",
        "9-7-2": "minecraft:air:0",
        "9-7-3": "minecraft:air:0",
        "9-7-4": "minecraft:air:0",
        "9-7-5": "minecraft:air:0",
        "9-7-6": "futurepack:color_iron:1",
        "9-8-0": "futurepack:color_iron:0",
        "9-8-1": "futurepack:color_iron_stair7:3",
        "9-8-2": "minecraft:air:0",
        "9-8-3": "minecraft:air:0",
        "9-8-4": "minecraft:air:0",
        "9-8-5": "futurepack:color_iron_stair0:5",
        "9-8-6": "futurepack:color_iron:0",
        "9-9-0": "futurepack:color_iron:0",
        "9-9-1": "futurepack:color_iron:0",
        "9-9-2": "futurepack:color_iron:0",
        "9-9-3": "futurepack:color_plasma_on:0",
        "9-9-4": "futurepack:color_iron:0",
        "9-9-5": "futurepack:color_iron:0",
        "9-9-6": "futurepack:color_iron:0",
        "10-0-0": "futurepack:color_iron:7",
        "10-0-1": "futurepack:color_iron:7",
        "10-0-2": "futurepack:color_iron:7",
        "10-0-3": "futurepack:color_iron:7",
        "10-0-4": "futurepack:color_iron:7",
        "10-0-5": "futurepack:beam:1",
        "10-0-6": "futurepack:wire:0",
        "10-1-0": "futurepack:color_iron:7",
        "10-1-1": "futurepack:color_iron_stair7:7",
        "10-1-2": "minecraft:air:0",
        "10-1-3": "minecraft:air:0",
        "10-1-4": "minecraft:air:0",
        "10-1-5": "minecraft:air:0",
        "10-1-6": "futurepack:baterie_box:2",
        "10-2-0": "futurepack:color_luftung:15",
        "10-2-1": "minecraft:air:0",
        "10-2-2": "minecraft:air:0",
        "10-2-3": "minecraft:air:0",
        "10-2-4": "minecraft:air:0",
        "10-2-5": "minecraft:air:0",
        "10-2-6": "futurepack:color_iron:15",
        "10-3-0": "futurepack:color_iron:0",
        "10-3-1": "futurepack:color_iron_stair7:3",
        "10-3-2": "minecraft:air:0",
        "10-3-3": "minecraft:air:0",
        "10-3-4": "minecraft:air:0",
        "10-3-5": "minecraft:air:0",
        "10-3-6": "futurepack:color_iron:0",
        "10-4-0": "futurepack:color_iron:0",
        "10-4-1": "futurepack:color_iron:0",
        "10-4-2": "futurepack:color_iron:0",
        "10-4-3": "futurepack:color_iron:0",
        "10-4-4": "futurepack:color_iron:0",
        "10-4-5": "futurepack:color_iron:0",
        "10-4-6": "futurepack:color_iron:0",
        "10-5-0": "futurepack:color_iron:7",
        "10-5-1": "futurepack:color_iron:7",
        "10-5-2": "futurepack:color_iron:7",
        "10-5-3": "futurepack:color_iron:7",
        "10-5-4": "futurepack:color_iron:7",
        "10-5-5": "futurepack:beam:2",
        "10-5-6": "futurepack:wire:0",
        "10-6-0": "futurepack:color_iron:7",
        "10-6-1": "futurepack:color_iron_stair7:7",
        "10-6-2": "minecraft:air:0",
        "10-6-3": "minecraft:air:0",
        "10-6-4": "minecraft:air:0",
        "10-6-5": "minecraft:air:0",
        "10-6-6": "futurepack:baterie_box:2",
        "10-7-0": "futurepack:color_luftung:15",
        "10-7-1": "minecraft:air:0",
        "10-7-2": "minecraft:air:0",
        "10-7-3": "minecraft:air:0",
        "10-7-4": "minecraft:air:0",
        "10-7-5": "minecraft:air:0",
        "10-7-6": "futurepack:color_iron:15",
        "10-8-0": "futurepack:color_iron:0",
        "10-8-1": "futurepack:color_iron_stair7:3",
        "10-8-2": "minecraft:air:0",
        "10-8-3": "minecraft:air:0",
        "10-8-4": "minecraft:air:0",
        "10-8-5": "minecraft:air:0",
        "10-8-6": "futurepack:color_iron:0",
        "10-9-0": "futurepack:color_iron:0",
        "10-9-1": "futurepack:color_iron:0",
        "10-9-2": "futurepack:color_iron:0",
        "10-9-3": "futurepack:color_iron:0",
        "10-9-4": "futurepack:color_iron:0",
        "10-9-5": "futurepack:color_iron:0",
        "10-9-6": "futurepack:color_iron:0",
        "11-0-0": "futurepack:color_iron:7",
        "11-0-1": "futurepack:color_iron:7",
        "11-0-2": "futurepack:color_iron:7",
        "11-0-3": "futurepack:color_iron:7",
        "11-0-4": "futurepack:color_iron:7",
        "11-0-5": "futurepack:color_iron:7",
        "11-0-6": "futurepack:color_iron:7",
        "11-1-0": "futurepack:color_iron:7",
        "11-1-1": "futurepack:color_iron_stair7:7",
        "11-1-2": "minecraft:air:0",
        "11-1-3": "minecraft:air:0",
        "11-1-4": "minecraft:air:0",
        "11-1-5": "futurepack:color_iron_stair7:0",
        "11-1-6": "futurepack:color_iron:7",
        "11-2-0": "futurepack:color_iron:1",
        "11-2-1": "futurepack:color_iron_fence:7",
        "11-2-2": "minecraft:air:0",
        "11-2-3": "minecraft:air:0",
        "11-2-4": "minecraft:air:0",
        "11-2-5": "minecraft:air:0",
        "11-2-6": "futurepack:color_iron:1",
        "11-3-0": "futurepack:color_iron:0",
        "11-3-1": "futurepack:color_iron_stair7:3",
        "11-3-2": "minecraft:air:0",
        "11-3-3": "minecraft:air:0",
        "11-3-4": "minecraft:air:0",
        "11-3-5": "futurepack:color_iron_stair0:4",
        "11-3-6": "futurepack:color_iron:0",
        "11-4-0": "futurepack:color_iron:0",
        "11-4-1": "futurepack:color_iron:0",
        "11-4-2": "futurepack:color_plasma_on:0",
        "11-4-3": "futurepack:color_iron:0",
        "11-4-4": "futurepack:color_plasma_on:0",
        "11-4-5": "futurepack:color_iron:0",
        "11-4-6": "futurepack:color_iron:0",
        "11-5-0": "futurepack:color_iron:7",
        "11-5-1": "futurepack:color_iron:7",
        "11-5-2": "futurepack:color_iron:7",
        "11-5-3": "futurepack:color_iron:7",
        "11-5-4": "futurepack:color_iron:7",
        "11-5-5": "futurepack:color_iron:7",
        "11-5-6": "futurepack:color_iron:7",
        "11-6-0": "futurepack:color_iron:7",
        "11-6-1": "futurepack:color_iron_stair7:7",
        "11-6-2": "minecraft:air:0",
        "11-6-3": "minecraft:air:0",
        "11-6-4": "minecraft:air:0",
        "11-6-5": "futurepack:color_iron_stair7:0",
        "11-6-6": "futurepack:color_iron:7",
        "11-7-0": "futurepack:color_iron:1",
        "11-7-1": "futurepack:color_iron_fence:7",
        "11-7-2": "minecraft:air:0",
        "11-7-3": "minecraft:air:0",
        "11-7-4": "minecraft:air:0",
        "11-7-5": "minecraft:air:0",
        "11-7-6": "futurepack:color_iron:1",
        "11-8-0": "futurepack:color_iron:0",
        "11-8-1": "futurepack:color_iron_stair7:3",
        "11-8-2": "minecraft:air:0",
        "11-8-3": "minecraft:air:0",
        "11-8-4": "minecraft:air:0",
        "11-8-5": "futurepack:color_iron_stair0:4",
        "11-8-6": "futurepack:color_iron:0",
        "11-9-0": "futurepack:color_iron:0",
        "11-9-1": "futurepack:color_iron:0",
        "11-9-2": "futurepack:color_plasma_on:0",
        "11-9-3": "futurepack:color_iron:0",
        "11-9-4": "futurepack:color_plasma_on:0",
        "11-9-5": "futurepack:color_iron:0",
        "11-9-6": "futurepack:color_iron:0",
        "12-0-1": "futurepack:color_iron:7",
        "12-0-2": "futurepack:color_iron:7",
        "12-0-3": "futurepack:color_iron:7",
        "12-0-4": "futurepack:color_iron:7",
        "12-0-5": "futurepack:color_iron:7",
        "12-1-1": "futurepack:color_iron:7",
        "12-1-2": "minecraft:air:0",
        "12-1-3": "minecraft:air:0",
        "12-1-4": "minecraft:air:0",
        "12-1-5": "futurepack:color_iron:7",
        "12-2-1": "futurepack:color_iron:15",
        "12-2-2": "minecraft:air:0",
        "12-2-3": "minecraft:air:0",
        "12-2-4": "minecraft:air:0",
        "12-2-5": "futurepack:color_iron:15",
        "12-3-1": "futurepack:color_iron:0",
        "12-3-2": "minecraft:air:0",
        "12-3-3": "minecraft:air:0",
        "12-3-4": "minecraft:air:0",
        "12-3-5": "futurepack:color_iron:0",
        "12-4-1": "futurepack:color_iron:0",
        "12-4-2": "futurepack:color_iron:0",
        "12-4-3": "futurepack:color_iron:0",
        "12-4-4": "futurepack:color_iron:0",
        "12-4-5": "futurepack:color_iron:0",
        "12-5-1": "futurepack:color_iron:7",
        "12-5-2": "futurepack:color_iron:7",
        "12-5-3": "futurepack:color_iron:7",
        "12-5-4": "futurepack:color_iron:7",
        "12-5-5": "futurepack:color_iron:7",
        "12-6-1": "futurepack:color_iron:7",
        "12-6-2": "minecraft:air:0",
        "12-6-3": "minecraft:air:0",
        "12-6-4": "minecraft:air:0",
        "12-6-5": "futurepack:color_iron:7",
        "12-7-1": "futurepack:color_iron:15",
        "12-7-2": "minecraft:air:0",
        "12-7-3": "minecraft:air:0",
        "12-7-4": "minecraft:air:0",
        "12-7-5": "futurepack:color_iron:15",
        "12-8-1": "futurepack:color_iron:0",
        "12-8-2": "minecraft:air:0",
        "12-8-3": "minecraft:air:0",
        "12-8-4": "minecraft:air:0",
        "12-8-5": "futurepack:color_iron:0",
        "12-9-1": "futurepack:color_iron:0",
        "12-9-2": "futurepack:color_iron:0",
        "12-9-3": "futurepack:color_iron:0",
        "12-9-4": "futurepack:color_iron:0",
        "12-9-5": "futurepack:color_iron:0",
        "13-0-1": "futurepack:color_iron:7",
        "13-0-2": "futurepack:color_iron:7",
        "13-0-3": "futurepack:color_iron:7",
        "13-0-4": "futurepack:color_iron:7",
        "13-0-5": "futurepack:color_iron:7",
        "13-1-1": "futurepack:color_iron:7",
        "13-1-2": "minecraft:air:0",
        "13-1-3": "minecraft:air:0",
        "13-1-4": "minecraft:air:0",
        "13-1-5": "futurepack:color_iron:7",
        "13-2-1": "futurepack:color_iron:1",
        "13-2-2": "minecraft:air:0",
        "13-2-3": "minecraft:air:0",
        "13-2-4": "minecraft:air:0",
        "13-2-5": "futurepack:color_iron:1",
        "13-3-1": "futurepack:color_iron:0",
        "13-3-2": "minecraft:air:0",
        "13-3-3": "minecraft:air:0",
        "13-3-4": "minecraft:air:0",
        "13-3-5": "futurepack:color_iron:0",
        "13-4-1": "futurepack:color_iron:0",
        "13-4-2": "futurepack:color_iron:0",
        "13-4-3": "futurepack:color_iron:0",
        "13-4-4": "futurepack:color_iron:0",
        "13-4-5": "futurepack:color_iron:0",
        "13-5-1": "futurepack:color_iron:7",
        "13-5-2": "futurepack:color_iron:7",
        "13-5-3": "futurepack:color_iron:7",
        "13-5-4": "futurepack:color_iron:7",
        "13-5-5": "futurepack:color_iron:7",
        "13-6-1": "futurepack:color_iron:7",
        "13-6-2": "minecraft:air:0",
        "13-6-3": "minecraft:air:0",
        "13-6-4": "minecraft:air:0",
        "13-6-5": "futurepack:color_iron:7",
        "13-7-1": "futurepack:color_iron:1",
        "13-7-2": "minecraft:air:0",
        "13-7-3": "minecraft:air:0",
        "13-7-4": "minecraft:air:0",
        "13-7-5": "futurepack:color_iron:1",
        "13-8-1": "futurepack:color_iron:0",
        "13-8-2": "minecraft:air:0",
        "13-8-3": "minecraft:air:0",
        "13-8-4": "minecraft:air:0",
        "13-8-5": "futurepack:color_iron:0",
        "13-9-1": "futurepack:color_iron:0",
        "13-9-2": "futurepack:color_iron:0",
        "13-9-3": "futurepack:color_iron:0",
        "13-9-4": "futurepack:color_iron:0",
        "13-9-5": "futurepack:color_iron:0"
    },

    "inventorys": 
    [

    ],

    "doors": 
    [
        {
            "facing": 4,
            "w": 1,
            "h": 3,
            "d": 3,
            "start": "0,1,2"
        },

        {
            "facing": 4,
            "w": 1,
            "h": 3,
            "d": 3,
            "start": "0,6,2"
        },

        {
            "facing": 5,
            "w": 1,
            "h": 3,
            "d": 3,
            "start": "13,1,2"
        },

        {
            "facing": 5,
            "w": 1,
            "h": 3,
            "d": 3,
            "start": "13,6,2"
        }
    ]
}