{
    "data": 
    {
        "0-0-2": "futurepack:color_iron:7",
        "0-0-3": "futurepack:color_iron:7",
        "0-0-4": "futurepack:color_iron:7",
        "0-0-5": "futurepack:color_iron:7",
        "0-0-6": "futurepack:color_iron:7",
        "0-1-2": "futurepack:color_iron:7",
        "0-1-3": "minecraft:air:0",
        "0-1-4": "minecraft:air:0",
        "0-1-5": "minecraft:air:0",
        "0-1-6": "futurepack:color_iron:7",
        "0-2-2": "futurepack:color_iron:1",
        "0-2-3": "minecraft:air:0",
        "0-2-4": "minecraft:air:0",
        "0-2-5": "minecraft:air:0",
        "0-2-6": "futurepack:color_iron:1",
        "0-3-2": "futurepack:color_iron:0",
        "0-3-3": "minecraft:air:0",
        "0-3-4": "minecraft:air:0",
        "0-3-5": "minecraft:air:0",
        "0-3-6": "futurepack:color_iron:0",
        "0-4-2": "futurepack:color_iron:0",
        "0-4-3": "futurepack:color_iron:0",
        "0-4-4": "futurepack:color_iron:0",
        "0-4-5": "futurepack:color_iron:0",
        "0-4-6": "futurepack:color_iron:0",
        "1-0-1": "futurepack:color_iron:7",
        "1-0-2": "futurepack:color_iron:7",
        "1-0-3": "futurepack:color_iron:7",
        "1-0-4": "futurepack:color_iron:7",
        "1-0-5": "futurepack:color_iron:7",
        "1-0-6": "futurepack:color_iron:7",
        "1-0-7": "futurepack:color_iron:7",
        "1-1-1": "futurepack:color_iron:7",
        "1-1-2": "minecraft:air:0",
        "1-1-3": "minecraft:air:0",
        "1-1-4": "minecraft:air:0",
        "1-1-5": "minecraft:air:0",
        "1-1-6": "minecraft:air:0",
        "1-1-7": "futurepack:color_iron:7",
        "1-2-1": "futurepack:color_iron:15",
        "1-2-2": "minecraft:air:0",
        "1-2-3": "minecraft:air:0",
        "1-2-4": "minecraft:air:0",
        "1-2-5": "minecraft:air:0",
        "1-2-6": "minecraft:air:0",
        "1-2-7": "futurepack:color_iron:15",
        "1-3-1": "futurepack:color_iron:0",
        "1-3-2": "minecraft:air:0",
        "1-3-3": "minecraft:air:0",
        "1-3-4": "minecraft:air:0",
        "1-3-5": "minecraft:air:0",
        "1-3-6": "minecraft:air:0",
        "1-3-7": "futurepack:color_iron:0",
        "1-4-1": "futurepack:color_iron:0",
        "1-4-2": "futurepack:color_iron:0",
        "1-4-3": "futurepack:color_iron:0",
        "1-4-4": "futurepack:color_plasma_on:0",
        "1-4-5": "futurepack:color_iron:0",
        "1-4-6": "futurepack:color_iron:0",
        "1-4-7": "futurepack:color_iron:0",
        "2-0-0": "futurepack:color_iron:7",
        "2-0-1": "futurepack:color_iron:7",
        "2-0-2": "futurepack:color_iron:7",
        "2-0-3": "futurepack:color_iron:7",
        "2-0-4": "futurepack:color_iron:7",
        "2-0-5": "futurepack:color_iron:7",
        "2-0-6": "futurepack:color_iron:7",
        "2-0-7": "futurepack:color_iron:7",
        "2-0-8": "futurepack:color_iron:7",
        "2-1-0": "futurepack:color_iron:7",
        "2-1-1": "minecraft:air:0",
        "2-1-2": "minecraft:air:0",
        "2-1-3": "minecraft:air:0",
        "2-1-4": "minecraft:air:0",
        "2-1-5": "minecraft:air:0",
        "2-1-6": "minecraft:air:0",
        "2-1-7": "minecraft:air:0",
        "2-1-8": "futurepack:color_iron:7",
        "2-2-0": "futurepack:color_iron:1",
        "2-2-1": "minecraft:air:0",
        "2-2-2": "minecraft:air:0",
        "2-2-3": "minecraft:air:0",
        "2-2-4": "minecraft:air:0",
        "2-2-5": "minecraft:air:0",
        "2-2-6": "minecraft:air:0",
        "2-2-7": "minecraft:air:0",
        "2-2-8": "futurepack:color_iron:1",
        "2-3-0": "futurepack:color_iron:0",
        "2-3-1": "minecraft:air:0",
        "2-3-2": "minecraft:air:0",
        "2-3-3": "minecraft:air:0",
        "2-3-4": "minecraft:air:0",
        "2-3-5": "minecraft:air:0",
        "2-3-6": "minecraft:air:0",
        "2-3-7": "minecraft:air:0",
        "2-3-8": "futurepack:color_iron:0",
        "2-4-0": "futurepack:color_iron:0",
        "2-4-1": "futurepack:color_iron:0",
        "2-4-2": "futurepack:color_iron:0",
        "2-4-3": "futurepack:color_iron:0",
        "2-4-4": "futurepack:color_iron:0",
        "2-4-5": "futurepack:color_iron:0",
        "2-4-6": "futurepack:color_iron:0",
        "2-4-7": "futurepack:color_iron:0",
        "2-4-8": "futurepack:color_iron:0",
        "3-0-0": "futurepack:color_iron:7",
        "3-0-1": "futurepack:color_iron:7",
        "3-0-2": "futurepack:color_iron:7",
        "3-0-3": "futurepack:color_iron:7",
        "3-0-4": "futurepack:color_iron:7",
        "3-0-5": "futurepack:color_iron:7",
        "3-0-6": "futurepack:color_iron:7",
        "3-0-7": "futurepack:color_iron:7",
        "3-0-8": "futurepack:color_iron:7",
        "3-1-0": "minecraft:air:0",
        "3-1-1": "minecraft:air:0",
        "3-1-2": "minecraft:air:0",
        "3-1-3": "minecraft:air:0",
        "3-1-4": "minecraft:air:0",
        "3-1-5": "minecraft:air:0",
        "3-1-6": "minecraft:air:0",
        "3-1-7": "minecraft:air:0",
        "3-1-8": "minecraft:air:0",
        "3-2-0": "minecraft:air:0",
        "3-2-1": "minecraft:air:0",
        "3-2-2": "minecraft:air:0",
        "3-2-3": "minecraft:air:0",
        "3-2-4": "minecraft:air:0",
        "3-2-5": "minecraft:air:0",
        "3-2-6": "minecraft:air:0",
        "3-2-7": "minecraft:air:0",
        "3-2-8": "minecraft:air:0",
        "3-3-0": "minecraft:air:0",
        "3-3-1": "minecraft:air:0",
        "3-3-2": "minecraft:air:0",
        "3-3-3": "minecraft:air:0",
        "3-3-4": "minecraft:air:0",
        "3-3-5": "minecraft:air:0",
        "3-3-6": "minecraft:air:0",
        "3-3-7": "minecraft:air:0",
        "3-3-8": "minecraft:air:0",
        "3-4-0": "futurepack:color_iron:0",
        "3-4-1": "futurepack:color_iron:0",
        "3-4-2": "futurepack:color_iron:0",
        "3-4-3": "futurepack:color_iron:0",
        "3-4-4": "futurepack:color_iron:0",
        "3-4-5": "futurepack:color_iron:0",
        "3-4-6": "futurepack:color_iron:0",
        "3-4-7": "futurepack:color_iron:0",
        "3-4-8": "futurepack:color_iron:0",
        "4-0-0": "futurepack:color_iron:7",
        "4-0-1": "futurepack:color_iron:7",
        "4-0-2": "futurepack:color_iron:7",
        "4-0-3": "futurepack:color_iron:7",
        "4-0-4": "futurepack:color_iron:7",
        "4-0-5": "futurepack:color_iron:7",
        "4-0-6": "futurepack:color_iron:7",
        "4-0-7": "futurepack:color_iron:7",
        "4-0-8": "futurepack:color_iron:7",
        "4-1-0": "minecraft:air:0",
        "4-1-1": "minecraft:air:0",
        "4-1-2": "minecraft:air:0",
        "4-1-3": "minecraft:air:0",
        "4-1-4": "minecraft:air:0",
        "4-1-5": "minecraft:air:0",
        "4-1-6": "minecraft:air:0",
        "4-1-7": "minecraft:air:0",
        "4-1-8": "minecraft:air:0",
        "4-2-0": "minecraft:air:0",
        "4-2-1": "minecraft:air:0",
        "4-2-2": "minecraft:air:0",
        "4-2-3": "minecraft:air:0",
        "4-2-4": "minecraft:air:0",
        "4-2-5": "minecraft:air:0",
        "4-2-6": "minecraft:air:0",
        "4-2-7": "minecraft:air:0",
        "4-2-8": "minecraft:air:0",
        "4-3-0": "minecraft:air:0",
        "4-3-1": "minecraft:air:0",
        "4-3-2": "minecraft:air:0",
        "4-3-3": "minecraft:air:0",
        "4-3-4": "minecraft:air:0",
        "4-3-5": "minecraft:air:0",
        "4-3-6": "minecraft:air:0",
        "4-3-7": "minecraft:air:0",
        "4-3-8": "minecraft:air:0",
        "4-4-0": "futurepack:color_iron:0",
        "4-4-1": "futurepack:color_plasma_on:0",
        "4-4-2": "futurepack:color_iron:0",
        "4-4-3": "futurepack:color_iron:0",
        "4-4-4": "futurepack:color_plasma_on:0",
        "4-4-5": "futurepack:color_iron:0",
        "4-4-6": "futurepack:color_iron:0",
        "4-4-7": "futurepack:color_plasma_on:0",
        "4-4-8": "futurepack:color_iron:0",
        "5-0-0": "futurepack:color_iron:7",
        "5-0-1": "futurepack:color_iron:7",
        "5-0-2": "futurepack:color_iron:7",
        "5-0-3": "futurepack:color_iron:7",
        "5-0-4": "futurepack:color_iron:7",
        "5-0-5": "futurepack:color_iron:7",
        "5-0-6": "futurepack:color_iron:7",
        "5-0-7": "futurepack:color_iron:7",
        "5-0-8": "futurepack:color_iron:7",
        "5-1-0": "minecraft:air:0",
        "5-1-1": "minecraft:air:0",
        "5-1-2": "minecraft:air:0",
        "5-1-3": "minecraft:air:0",
        "5-1-4": "minecraft:air:0",
        "5-1-5": "minecraft:air:0",
        "5-1-6": "minecraft:air:0",
        "5-1-7": "minecraft:air:0",
        "5-1-8": "minecraft:air:0",
        "5-2-0": "minecraft:air:0",
        "5-2-1": "minecraft:air:0",
        "5-2-2": "minecraft:air:0",
        "5-2-3": "minecraft:air:0",
        "5-2-4": "minecraft:air:0",
        "5-2-5": "minecraft:air:0",
        "5-2-6": "minecraft:air:0",
        "5-2-7": "minecraft:air:0",
        "5-2-8": "minecraft:air:0",
        "5-3-0": "minecraft:air:0",
        "5-3-1": "minecraft:air:0",
        "5-3-2": "minecraft:air:0",
        "5-3-3": "minecraft:air:0",
        "5-3-4": "minecraft:air:0",
        "5-3-5": "minecraft:air:0",
        "5-3-6": "minecraft:air:0",
        "5-3-7": "minecraft:air:0",
        "5-3-8": "minecraft:air:0",
        "5-4-0": "futurepack:color_iron:0",
        "5-4-1": "futurepack:color_iron:0",
        "5-4-2": "futurepack:color_iron:0",
        "5-4-3": "futurepack:color_iron:0",
        "5-4-4": "futurepack:color_iron:0",
        "5-4-5": "futurepack:color_iron:0",
        "5-4-6": "futurepack:color_iron:0",
        "5-4-7": "futurepack:color_iron:0",
        "5-4-8": "futurepack:color_iron:0",
        "6-0-0": "futurepack:color_iron:7",
        "6-0-1": "futurepack:color_iron:7",
        "6-0-2": "futurepack:color_iron:7",
        "6-0-3": "futurepack:color_iron:7",
        "6-0-4": "futurepack:color_iron:7",
        "6-0-5": "futurepack:color_iron:7",
        "6-0-6": "futurepack:color_iron:7",
        "6-0-7": "futurepack:color_iron:7",
        "6-0-8": "futurepack:color_iron:7",
        "6-1-0": "futurepack:color_iron:7",
        "6-1-1": "minecraft:air:0",
        "6-1-2": "minecraft:air:0",
        "6-1-3": "minecraft:air:0",
        "6-1-4": "minecraft:air:0",
        "6-1-5": "minecraft:air:0",
        "6-1-6": "minecraft:air:0",
        "6-1-7": "minecraft:air:0",
        "6-1-8": "futurepack:color_iron:7",
        "6-2-0": "futurepack:color_iron:1",
        "6-2-1": "minecraft:air:0",
        "6-2-2": "minecraft:air:0",
        "6-2-3": "minecraft:air:0",
        "6-2-4": "minecraft:air:0",
        "6-2-5": "minecraft:air:0",
        "6-2-6": "minecraft:air:0",
        "6-2-7": "minecraft:air:0",
        "6-2-8": "futurepack:color_iron:1",
        "6-3-0": "futurepack:color_iron:0",
        "6-3-1": "minecraft:air:0",
        "6-3-2": "minecraft:air:0",
        "6-3-3": "minecraft:air:0",
        "6-3-4": "minecraft:air:0",
        "6-3-5": "minecraft:air:0",
        "6-3-6": "minecraft:air:0",
        "6-3-7": "minecraft:air:0",
        "6-3-8": "futurepack:color_iron:0",
        "6-4-0": "futurepack:color_iron:0",
        "6-4-1": "futurepack:color_iron:0",
        "6-4-2": "futurepack:color_iron:0",
        "6-4-3": "futurepack:color_iron:0",
        "6-4-4": "futurepack:color_iron:0",
        "6-4-5": "futurepack:color_iron:0",
        "6-4-6": "futurepack:color_iron:0",
        "6-4-7": "futurepack:color_iron:0",
        "6-4-8": "futurepack:color_iron:0",
        "7-0-1": "futurepack:color_iron:7",
        "7-0-2": "futurepack:color_iron:7",
        "7-0-3": "futurepack:color_iron:7",
        "7-0-4": "futurepack:color_iron:7",
        "7-0-5": "futurepack:color_iron:7",
        "7-0-6": "futurepack:color_iron:7",
        "7-0-7": "futurepack:color_iron:7",
        "7-1-1": "futurepack:color_iron:7",
        "7-1-2": "minecraft:air:0",
        "7-1-3": "minecraft:air:0",
        "7-1-4": "minecraft:air:0",
        "7-1-5": "minecraft:air:0",
        "7-1-6": "minecraft:air:0",
        "7-1-7": "futurepack:color_iron:7",
        "7-2-1": "futurepack:color_iron:15",
        "7-2-2": "minecraft:air:0",
        "7-2-3": "minecraft:air:0",
        "7-2-4": "minecraft:air:0",
        "7-2-5": "minecraft:air:0",
        "7-2-6": "minecraft:air:0",
        "7-2-7": "futurepack:color_iron:15",
        "7-3-1": "futurepack:color_iron:0",
        "7-3-2": "minecraft:air:0",
        "7-3-3": "minecraft:air:0",
        "7-3-4": "minecraft:air:0",
        "7-3-5": "minecraft:air:0",
        "7-3-6": "minecraft:air:0",
        "7-3-7": "futurepack:color_iron:0",
        "7-4-1": "futurepack:color_iron:0",
        "7-4-2": "futurepack:color_iron:0",
        "7-4-3": "futurepack:color_iron:0",
        "7-4-4": "futurepack:color_plasma_on:0",
        "7-4-5": "futurepack:color_iron:0",
        "7-4-6": "futurepack:color_iron:0",
        "7-4-7": "futurepack:color_iron:0",
        "8-0-2": "futurepack:color_iron:7",
        "8-0-3": "futurepack:color_iron:7",
        "8-0-4": "futurepack:color_iron:7",
        "8-0-5": "futurepack:color_iron:7",
        "8-0-6": "futurepack:color_iron:7",
        "8-1-2": "futurepack:color_iron:7",
        "8-1-3": "minecraft:air:0",
        "8-1-4": "minecraft:air:0",
        "8-1-5": "minecraft:air:0",
        "8-1-6": "futurepack:color_iron:7",
        "8-2-2": "futurepack:color_iron:1",
        "8-2-3": "minecraft:air:0",
        "8-2-4": "minecraft:air:0",
        "8-2-5": "minecraft:air:0",
        "8-2-6": "futurepack:color_iron:1",
        "8-3-2": "futurepack:color_iron:0",
        "8-3-3": "minecraft:air:0",
        "8-3-4": "minecraft:air:0",
        "8-3-5": "minecraft:air:0",
        "8-3-6": "futurepack:color_iron:0",
        "8-4-2": "futurepack:color_iron:0",
        "8-4-3": "futurepack:color_iron:0",
        "8-4-4": "futurepack:color_iron:0",
        "8-4-5": "futurepack:color_iron:0",
        "8-4-6": "futurepack:color_iron:0"
    },
    "inventorys": 
    [
        
    ],

    "doors": 
    [
        {
            "facing": 4,
            "w": 1,
            "h": 3,
            "d": 3,
            "start": "0,1,3"
        },

        {
            "facing": 2,
            "w": 3,
            "h": 3,
            "d": 1,
            "start": "3,1,0"
        },

        {
            "facing": 3,
            "w": 3,
            "h": 3,
            "d": 1,
            "start": "3,1,8"
        },

        {
            "facing": 5,
            "w": 1,
            "h": 3,
            "d": 3,
            "start": "8,1,3"
        }
    ]
}