{
  "config" : {
    "features" : [ {
      "feature" : "futurepack:tyros_tree_checked",
      "chance" : 0.833334
    }, {
      "feature" : "futurepack:tyros_tree_cocoa_checked",
      "chance" : 0.4
    }, {
      "feature" : "minecraft:fancy_oak_checked",
      "chance" : 0.833334
    }, {
      "feature" : "minecraft:jungle_bush",
      "chance" : 0.166667
    }, {
      "feature" : "minecraft:mega_jungle_tree_checked",
      "chance" : 0.25
    } ],
    "default" : "minecraft:jungle_tree"
  },
  "type" : "minecraft:random_selector"
}