{
  "feature" : "futurepack:mendel_berrys",
  "placement" : [ {
    "type" : "minecraft:biome"
  }, {
    "count" : 4,
    "type" : "minecraft:count"
  }, {
    "type" : "minecraft:heightmap",
    "heightmap" : "WORLD_SURFACE_WG"
  }, {
    "type" : "minecraft:in_square"
  } ]
}