{
  "feature": "futurepack:tyros_tree",
  "placement": [
    {
      "predicate": {
        "state": {
          "Properties": {
            "stage": "0"
          },
          "Name": "futurepack:sapling_tyros"
        },
        "type": "minecraft:would_survive"
      },
      "type": "minecraft:block_predicate_filter"
    }
  ]
}